G04 #@! TF.GenerationSoftware,KiCad,Pcbnew,(6.0.10)*
G04 #@! TF.CreationDate,2023-06-02T21:31:09+02:00*
G04 #@! TF.ProjectId,raspi-cam-light,72617370-692d-4636-916d-2d6c69676874,rev?*
G04 #@! TF.SameCoordinates,Original*
G04 #@! TF.FileFunction,Copper,L1,Top*
G04 #@! TF.FilePolarity,Positive*
%FSLAX46Y46*%
G04 Gerber Fmt 4.6, Leading zero omitted, Abs format (unit mm)*
G04 Created by KiCad (PCBNEW (6.0.10)) date 2023-06-02 21:31:09*
%MOMM*%
%LPD*%
G01*
G04 APERTURE LIST*
G04 Aperture macros list*
%AMRoundRect*
0 Rectangle with rounded corners*
0 $1 Rounding radius*
0 $2 $3 $4 $5 $6 $7 $8 $9 X,Y pos of 4 corners*
0 Add a 4 corners polygon primitive as box body*
4,1,4,$2,$3,$4,$5,$6,$7,$8,$9,$2,$3,0*
0 Add four circle primitives for the rounded corners*
1,1,$1+$1,$2,$3*
1,1,$1+$1,$4,$5*
1,1,$1+$1,$6,$7*
1,1,$1+$1,$8,$9*
0 Add four rect primitives between the rounded corners*
20,1,$1+$1,$2,$3,$4,$5,0*
20,1,$1+$1,$4,$5,$6,$7,0*
20,1,$1+$1,$6,$7,$8,$9,0*
20,1,$1+$1,$8,$9,$2,$3,0*%
%AMFreePoly0*
4,1,22,0.500000,-0.750000,0.000000,-0.750000,0.000000,-0.745033,-0.079941,-0.743568,-0.215256,-0.701293,-0.333266,-0.622738,-0.424486,-0.514219,-0.481581,-0.384460,-0.499164,-0.250000,-0.500000,-0.250000,-0.500000,0.250000,-0.499164,0.250000,-0.499963,0.256109,-0.478152,0.396186,-0.417904,0.524511,-0.324060,0.630769,-0.204165,0.706417,-0.067858,0.745374,0.000000,0.744959,0.000000,0.750000,
0.500000,0.750000,0.500000,-0.750000,0.500000,-0.750000,$1*%
%AMFreePoly1*
4,1,20,0.000000,0.744959,0.073905,0.744508,0.209726,0.703889,0.328688,0.626782,0.421226,0.519385,0.479903,0.390333,0.500000,0.250000,0.500000,-0.250000,0.499851,-0.262216,0.476331,-0.402017,0.414519,-0.529596,0.319384,-0.634700,0.198574,-0.708877,0.061801,-0.746166,0.000000,-0.745033,0.000000,-0.750000,-0.500000,-0.750000,-0.500000,0.750000,0.000000,0.750000,0.000000,0.744959,
0.000000,0.744959,$1*%
G04 Aperture macros list end*
G04 #@! TA.AperFunction,SMDPad,CuDef*
%ADD10R,3.500000X2.700000*%
G04 #@! TD*
G04 #@! TA.AperFunction,SMDPad,CuDef*
%ADD11C,5.700000*%
G04 #@! TD*
G04 #@! TA.AperFunction,ComponentPad*
%ADD12C,1.524000*%
G04 #@! TD*
G04 #@! TA.AperFunction,SMDPad,CuDef*
%ADD13FreePoly0,0.000000*%
G04 #@! TD*
G04 #@! TA.AperFunction,SMDPad,CuDef*
%ADD14FreePoly1,0.000000*%
G04 #@! TD*
G04 #@! TA.AperFunction,SMDPad,CuDef*
%ADD15RoundRect,0.243750X0.243750X0.456250X-0.243750X0.456250X-0.243750X-0.456250X0.243750X-0.456250X0*%
G04 #@! TD*
G04 #@! TA.AperFunction,SMDPad,CuDef*
%ADD16RoundRect,0.250000X0.262500X0.450000X-0.262500X0.450000X-0.262500X-0.450000X0.262500X-0.450000X0*%
G04 #@! TD*
G04 #@! TA.AperFunction,ComponentPad*
%ADD17C,0.500000*%
G04 #@! TD*
G04 #@! TA.AperFunction,SMDPad,CuDef*
%ADD18RoundRect,0.249999X1.300001X-0.955001X1.300001X0.955001X-1.300001X0.955001X-1.300001X-0.955001X0*%
G04 #@! TD*
G04 #@! TA.AperFunction,ComponentPad*
%ADD19RoundRect,0.250000X-0.625000X0.350000X-0.625000X-0.350000X0.625000X-0.350000X0.625000X0.350000X0*%
G04 #@! TD*
G04 #@! TA.AperFunction,ComponentPad*
%ADD20O,1.750000X1.200000*%
G04 #@! TD*
G04 #@! TA.AperFunction,ViaPad*
%ADD21C,0.800000*%
G04 #@! TD*
G04 #@! TA.AperFunction,ViaPad*
%ADD22C,0.500000*%
G04 #@! TD*
G04 #@! TA.AperFunction,Conductor*
%ADD23C,1.000000*%
G04 #@! TD*
G04 #@! TA.AperFunction,Conductor*
%ADD24C,0.600000*%
G04 #@! TD*
G04 APERTURE END LIST*
D10*
X130863500Y-92307400D03*
X143563500Y-89607400D03*
D11*
X137213500Y-90957400D03*
D12*
X151384000Y-104190800D03*
X148844000Y-101650800D03*
X146304000Y-104190800D03*
D13*
X129968750Y-103900000D03*
D14*
X131268750Y-103900000D03*
D15*
X138656250Y-103875000D03*
X136781250Y-103875000D03*
D13*
X129968750Y-106525000D03*
D14*
X131268750Y-106525000D03*
D16*
X135106250Y-106222800D03*
X133281250Y-106222800D03*
D15*
X138707100Y-106222800D03*
X136832100Y-106222800D03*
D16*
X135081250Y-103875000D03*
X133256250Y-103875000D03*
D17*
X149300000Y-91345000D03*
X150600000Y-91345000D03*
X148000000Y-93255000D03*
X148000000Y-91345000D03*
X150600000Y-93255000D03*
D18*
X149300000Y-92300000D03*
D17*
X149300000Y-93255000D03*
D19*
X123910000Y-99450000D03*
D20*
X123910000Y-101450000D03*
X123910000Y-103450000D03*
X123910000Y-105450000D03*
D21*
X124358400Y-84582000D03*
X145745200Y-106222800D03*
X151739600Y-106222800D03*
X143408400Y-104241600D03*
X151180800Y-101955600D03*
X128168400Y-97840800D03*
X128016000Y-82346800D03*
X123088400Y-94843600D03*
X136550400Y-82804000D03*
X132689600Y-85801200D03*
X142087600Y-101092000D03*
X143205200Y-92252800D03*
X127762000Y-92049600D03*
X148488400Y-103632000D03*
X144729200Y-100177600D03*
X147320000Y-82448400D03*
X131165600Y-89204800D03*
X140055600Y-82448400D03*
X130860800Y-100431600D03*
X130302000Y-96062800D03*
X137800000Y-97275000D03*
X137800000Y-99950000D03*
X146125000Y-89650000D03*
D22*
X135880000Y-92176600D03*
X138557000Y-93446600D03*
X137287000Y-93446600D03*
X136017000Y-93446600D03*
X139690000Y-92176600D03*
X138420000Y-92176600D03*
X137150000Y-90906600D03*
X137150000Y-89636600D03*
X135880000Y-90906600D03*
X138420000Y-90906600D03*
X134610000Y-92176600D03*
X137150000Y-92176600D03*
X134610000Y-90906600D03*
X138420000Y-89636600D03*
X135880000Y-89636600D03*
X139690000Y-90906600D03*
X139690000Y-89636600D03*
X134610000Y-89636600D03*
X134747000Y-93446600D03*
X139827000Y-93446600D03*
X135880000Y-88366600D03*
X137150000Y-88366600D03*
X139690000Y-88366600D03*
X138420000Y-88366600D03*
X134610000Y-88366600D03*
D21*
X140225000Y-84450000D03*
D23*
X137800000Y-97275000D02*
X137800000Y-99950000D01*
X146125000Y-89650000D02*
X143606100Y-89650000D01*
X143606100Y-89650000D02*
X143563500Y-89607400D01*
D24*
X140225000Y-84450000D02*
X127225000Y-84450000D01*
X122021600Y-89653400D02*
X122021600Y-100838000D01*
X127225000Y-84450000D02*
X122021600Y-89653400D01*
X122021600Y-100838000D02*
X122633600Y-101450000D01*
X122633600Y-101450000D02*
X123910000Y-101450000D01*
X128600000Y-103900000D02*
X129968750Y-103900000D01*
X126150000Y-101450000D02*
X128600000Y-103900000D01*
X123910000Y-101450000D02*
X126150000Y-101450000D01*
X129968750Y-106525000D02*
X128900000Y-106525000D01*
X123910000Y-103450000D02*
X125825000Y-103450000D01*
X128812500Y-106437500D02*
X128950000Y-106575000D01*
X125825000Y-103450000D02*
X128812500Y-106437500D01*
X128900000Y-106525000D02*
X128812500Y-106437500D01*
X135106250Y-106222800D02*
X136832100Y-106222800D01*
X135081250Y-103875000D02*
X136781250Y-103875000D01*
X131268750Y-103900000D02*
X133231250Y-103900000D01*
X133231250Y-103900000D02*
X133256250Y-103875000D01*
X131879400Y-106525000D02*
X132232400Y-106172000D01*
X133230450Y-106172000D02*
X133281250Y-106222800D01*
X131268750Y-106525000D02*
X131879400Y-106525000D01*
X132232400Y-106172000D02*
X133230450Y-106172000D01*
X133256250Y-106525000D02*
X133281250Y-106500000D01*
G04 #@! TA.AperFunction,Conductor*
G36*
X140140121Y-88005602D02*
G01*
X140186614Y-88059258D01*
X140198000Y-88111600D01*
X140198000Y-93828600D01*
X140177998Y-93896721D01*
X140124342Y-93943214D01*
X140072000Y-93954600D01*
X134355000Y-93954600D01*
X134286879Y-93934598D01*
X134240386Y-93880942D01*
X134229000Y-93828600D01*
X134229000Y-88111600D01*
X134249002Y-88043479D01*
X134302658Y-87996986D01*
X134355000Y-87985600D01*
X140072000Y-87985600D01*
X140140121Y-88005602D01*
G37*
G04 #@! TD.AperFunction*
G04 #@! TA.AperFunction,Conductor*
G36*
X142589310Y-80087913D02*
G01*
X142605853Y-80090847D01*
X142617970Y-80088173D01*
X142623852Y-80088051D01*
X142641889Y-80086159D01*
X143212412Y-80090845D01*
X143221813Y-80090922D01*
X143229126Y-80091195D01*
X143840194Y-80131770D01*
X143847479Y-80132467D01*
X144455152Y-80208447D01*
X144462383Y-80209565D01*
X145064645Y-80320701D01*
X145071775Y-80322231D01*
X145480052Y-80422388D01*
X145666592Y-80468150D01*
X145673645Y-80470100D01*
X145877593Y-80532887D01*
X146258938Y-80650289D01*
X146265847Y-80652636D01*
X146516076Y-80745894D01*
X146839729Y-80866516D01*
X146846509Y-80869270D01*
X147406977Y-81116091D01*
X147413568Y-81119225D01*
X147652223Y-81241331D01*
X147958788Y-81398183D01*
X147965203Y-81401704D01*
X148493285Y-81711829D01*
X148499486Y-81715717D01*
X149008678Y-82055981D01*
X149014642Y-82060222D01*
X149503225Y-82429477D01*
X149508932Y-82434057D01*
X149975248Y-82831049D01*
X149980680Y-82835953D01*
X150423146Y-83259331D01*
X150428285Y-83264541D01*
X150845459Y-83712930D01*
X150850286Y-83718431D01*
X151240706Y-84190260D01*
X151245205Y-84196031D01*
X151321718Y-84300273D01*
X151607583Y-84689741D01*
X151611723Y-84695740D01*
X151773897Y-84945942D01*
X151944824Y-85209649D01*
X151948620Y-85215894D01*
X152251343Y-85748310D01*
X152254761Y-85754750D01*
X152526049Y-86303815D01*
X152529098Y-86310467D01*
X152768042Y-86874325D01*
X152770701Y-86881143D01*
X152927396Y-87320289D01*
X152976516Y-87457952D01*
X152978772Y-87464905D01*
X153146600Y-88038491D01*
X153150753Y-88052686D01*
X153152601Y-88059757D01*
X153193809Y-88238522D01*
X153290167Y-88656531D01*
X153291603Y-88663707D01*
X153394290Y-89267453D01*
X153395307Y-89274700D01*
X153462770Y-89883382D01*
X153463365Y-89890676D01*
X153490857Y-90415886D01*
X153493680Y-90469827D01*
X153492585Y-90487927D01*
X153492722Y-90493806D01*
X153490584Y-90506033D01*
X153493288Y-90518146D01*
X153493400Y-90522980D01*
X153495485Y-90541925D01*
X153490067Y-106642499D01*
X153487646Y-106667037D01*
X153487489Y-106667826D01*
X153487489Y-106667829D01*
X153485068Y-106680000D01*
X153487489Y-106692172D01*
X153487489Y-106704580D01*
X153487024Y-106704580D01*
X153487733Y-106715406D01*
X153473214Y-106936917D01*
X153471063Y-106953257D01*
X153422443Y-107197687D01*
X153418178Y-107213605D01*
X153405905Y-107249759D01*
X153338070Y-107449591D01*
X153331763Y-107464818D01*
X153221535Y-107688336D01*
X153213294Y-107702608D01*
X153210906Y-107706183D01*
X153074838Y-107909818D01*
X153064805Y-107922893D01*
X152900490Y-108110255D01*
X152888835Y-108121910D01*
X152701455Y-108286234D01*
X152688379Y-108296267D01*
X152481174Y-108434713D01*
X152466901Y-108442953D01*
X152243380Y-108553179D01*
X152228160Y-108559484D01*
X151992158Y-108639591D01*
X151976248Y-108643854D01*
X151731821Y-108692469D01*
X151715480Y-108694620D01*
X151693380Y-108696068D01*
X151493794Y-108709145D01*
X151483142Y-108708447D01*
X151483142Y-108708935D01*
X151470729Y-108708935D01*
X151458559Y-108706514D01*
X151445654Y-108709081D01*
X151421083Y-108711500D01*
X150202306Y-108711500D01*
X150177708Y-108709076D01*
X150177007Y-108708936D01*
X150177003Y-108708936D01*
X150164836Y-108706514D01*
X150149416Y-108709579D01*
X150149401Y-108709582D01*
X150124837Y-108712000D01*
X145531190Y-108712000D01*
X145506609Y-108709579D01*
X145491200Y-108706514D01*
X145478303Y-108709079D01*
X145453724Y-108711500D01*
X129372994Y-108711500D01*
X129349238Y-108709240D01*
X129348743Y-108709145D01*
X129335070Y-108706520D01*
X129322920Y-108709021D01*
X129322917Y-108709021D01*
X129321015Y-108709413D01*
X129295612Y-108712000D01*
X124677790Y-108712000D01*
X124653209Y-108709579D01*
X124637800Y-108706514D01*
X124624903Y-108709079D01*
X124600324Y-108711500D01*
X124421067Y-108711500D01*
X124421041Y-108711499D01*
X124420539Y-108711401D01*
X124396269Y-108711499D01*
X124395760Y-108711500D01*
X124371433Y-108711500D01*
X124370931Y-108711600D01*
X124370903Y-108711601D01*
X124274655Y-108711990D01*
X124272353Y-108711999D01*
X124271845Y-108712000D01*
X123526156Y-108712000D01*
X123516441Y-108710068D01*
X123506730Y-108712000D01*
X123473946Y-108712000D01*
X123465707Y-108711730D01*
X123440343Y-108710068D01*
X123259515Y-108698219D01*
X123243179Y-108696068D01*
X122998753Y-108647453D01*
X122982832Y-108643188D01*
X122746829Y-108563079D01*
X122731610Y-108556775D01*
X122508076Y-108446543D01*
X122493828Y-108438316D01*
X122286593Y-108299847D01*
X122273528Y-108289822D01*
X122269437Y-108286234D01*
X122086147Y-108125494D01*
X122074506Y-108113853D01*
X121910175Y-107926469D01*
X121900153Y-107913407D01*
X121761684Y-107706172D01*
X121753457Y-107691924D01*
X121643225Y-107468390D01*
X121636921Y-107453171D01*
X121556812Y-107217168D01*
X121552547Y-107201248D01*
X121539080Y-107133538D01*
X121503932Y-106956821D01*
X121501781Y-106940484D01*
X121487266Y-106718968D01*
X121487976Y-106708142D01*
X121487510Y-106708142D01*
X121487510Y-106695731D01*
X121489932Y-106683559D01*
X121487463Y-106671145D01*
X121485042Y-106646243D01*
X121485052Y-106642499D01*
X121488233Y-105402019D01*
X122776801Y-105402019D01*
X122777158Y-105408836D01*
X122777158Y-105408840D01*
X122783690Y-105533465D01*
X122786518Y-105587424D01*
X122788328Y-105593996D01*
X122788329Y-105594001D01*
X122833813Y-105759128D01*
X122835821Y-105766417D01*
X122922410Y-105930648D01*
X123042245Y-106072454D01*
X123047668Y-106076601D01*
X123047670Y-106076602D01*
X123184315Y-106181075D01*
X123184319Y-106181077D01*
X123189736Y-106185219D01*
X123195916Y-106188101D01*
X123195918Y-106188102D01*
X123351823Y-106260802D01*
X123351826Y-106260803D01*
X123358000Y-106263682D01*
X123364648Y-106265168D01*
X123364651Y-106265169D01*
X123463711Y-106287311D01*
X123539188Y-106304182D01*
X123544876Y-106304500D01*
X124231385Y-106304500D01*
X124369573Y-106289488D01*
X124490210Y-106248889D01*
X124539064Y-106232448D01*
X124539066Y-106232447D01*
X124545535Y-106230270D01*
X124704677Y-106134649D01*
X124709634Y-106129961D01*
X124709637Y-106129959D01*
X124834614Y-106011773D01*
X124834616Y-106011771D01*
X124839572Y-106007084D01*
X124943928Y-105853529D01*
X124953480Y-105829648D01*
X125010342Y-105687484D01*
X125010343Y-105687479D01*
X125012876Y-105681147D01*
X125013990Y-105674420D01*
X125013991Y-105674415D01*
X125042084Y-105504718D01*
X125042084Y-105504715D01*
X125043199Y-105497981D01*
X125038997Y-105417792D01*
X125033839Y-105319389D01*
X125033482Y-105312576D01*
X125031672Y-105306004D01*
X125031671Y-105305999D01*
X124985992Y-105140165D01*
X124984179Y-105133583D01*
X124897590Y-104969352D01*
X124777755Y-104827546D01*
X124772330Y-104823398D01*
X124635685Y-104718925D01*
X124635681Y-104718923D01*
X124630264Y-104714781D01*
X124624084Y-104711899D01*
X124624082Y-104711898D01*
X124468177Y-104639198D01*
X124468174Y-104639197D01*
X124462000Y-104636318D01*
X124455352Y-104634832D01*
X124455349Y-104634831D01*
X124285849Y-104596944D01*
X124285850Y-104596944D01*
X124280812Y-104595818D01*
X124275124Y-104595500D01*
X123588615Y-104595500D01*
X123450427Y-104610512D01*
X123365189Y-104639198D01*
X123280936Y-104667552D01*
X123280934Y-104667553D01*
X123274465Y-104669730D01*
X123115323Y-104765351D01*
X123110366Y-104770039D01*
X123110363Y-104770041D01*
X122987650Y-104886086D01*
X122980428Y-104892916D01*
X122876072Y-105046471D01*
X122873539Y-105052805D01*
X122873537Y-105052808D01*
X122809658Y-105212516D01*
X122809657Y-105212521D01*
X122807124Y-105218853D01*
X122806010Y-105225580D01*
X122806009Y-105225585D01*
X122777916Y-105395282D01*
X122776801Y-105402019D01*
X121488233Y-105402019D01*
X121493361Y-103402019D01*
X122776801Y-103402019D01*
X122777158Y-103408836D01*
X122777158Y-103408840D01*
X122780214Y-103467145D01*
X122786518Y-103587424D01*
X122788328Y-103593996D01*
X122788329Y-103594001D01*
X122795251Y-103619129D01*
X122835821Y-103766417D01*
X122922410Y-103930648D01*
X123042245Y-104072454D01*
X123047668Y-104076601D01*
X123047670Y-104076602D01*
X123184315Y-104181075D01*
X123184319Y-104181077D01*
X123189736Y-104185219D01*
X123195916Y-104188101D01*
X123195918Y-104188102D01*
X123351823Y-104260802D01*
X123351826Y-104260803D01*
X123358000Y-104263682D01*
X123364648Y-104265168D01*
X123364651Y-104265169D01*
X123463711Y-104287311D01*
X123539188Y-104304182D01*
X123544876Y-104304500D01*
X124231385Y-104304500D01*
X124369573Y-104289488D01*
X124490210Y-104248889D01*
X124539064Y-104232448D01*
X124539066Y-104232447D01*
X124545535Y-104230270D01*
X124704677Y-104134649D01*
X124709634Y-104129961D01*
X124709637Y-104129959D01*
X124805873Y-104038952D01*
X124869110Y-104006680D01*
X124892446Y-104004500D01*
X125543129Y-104004500D01*
X125611250Y-104024502D01*
X125632224Y-104041405D01*
X128370210Y-106779391D01*
X128497251Y-106906433D01*
X128500903Y-106910241D01*
X128543226Y-106956266D01*
X128550527Y-106960793D01*
X128552229Y-106962201D01*
X128561008Y-106970190D01*
X128584819Y-106994001D01*
X128588229Y-106996589D01*
X128588232Y-106996592D01*
X128627508Y-107026404D01*
X128675234Y-107062630D01*
X128816489Y-107118556D01*
X128967581Y-107134436D01*
X128976048Y-107133004D01*
X128976049Y-107133004D01*
X129108907Y-107110534D01*
X129108910Y-107110533D01*
X129117377Y-107109101D01*
X129141181Y-107097900D01*
X129211333Y-107086994D01*
X129276247Y-107115747D01*
X129301399Y-107147060D01*
X129302389Y-107146444D01*
X129338902Y-107205106D01*
X129338906Y-107205112D01*
X129341266Y-107208903D01*
X129344142Y-107212324D01*
X129344146Y-107212330D01*
X129430538Y-107315106D01*
X129433423Y-107318538D01*
X129436765Y-107321526D01*
X129484923Y-107364585D01*
X129484928Y-107364589D01*
X129488270Y-107367577D01*
X129492003Y-107370062D01*
X129492007Y-107370065D01*
X129603767Y-107444459D01*
X129603773Y-107444462D01*
X129607495Y-107446940D01*
X129673900Y-107478614D01*
X129678175Y-107479949D01*
X129678181Y-107479952D01*
X129806319Y-107519985D01*
X129806324Y-107519986D01*
X129810606Y-107521324D01*
X129883231Y-107533086D01*
X130010294Y-107535415D01*
X130021956Y-107535629D01*
X130026430Y-107535711D01*
X130030872Y-107535158D01*
X130035352Y-107534921D01*
X130035358Y-107535027D01*
X130044082Y-107534486D01*
X130468750Y-107534486D01*
X130568051Y-107514734D01*
X130574081Y-107510705D01*
X130641123Y-107503497D01*
X130661655Y-107509527D01*
X130669449Y-107514734D01*
X130768750Y-107534486D01*
X131258441Y-107534486D01*
X131260749Y-107534507D01*
X131326430Y-107535711D01*
X131399440Y-107526617D01*
X131537620Y-107488944D01*
X131585100Y-107468398D01*
X131601016Y-107461511D01*
X131601021Y-107461509D01*
X131605140Y-107459726D01*
X131727192Y-107384786D01*
X131783798Y-107337791D01*
X131786797Y-107334478D01*
X131786801Y-107334474D01*
X131876904Y-107234930D01*
X131879912Y-107231607D01*
X131889651Y-107217168D01*
X131918546Y-107174330D01*
X131918549Y-107174325D01*
X131921054Y-107170611D01*
X131939606Y-107132320D01*
X131987306Y-107079738D01*
X132019117Y-107065899D01*
X132021400Y-107065262D01*
X132029918Y-107064095D01*
X132037803Y-107060683D01*
X132037806Y-107060682D01*
X132043894Y-107058047D01*
X132065163Y-107051013D01*
X132071622Y-107049498D01*
X132079983Y-107047537D01*
X132118437Y-107026397D01*
X132129083Y-107021182D01*
X132161463Y-107007170D01*
X132161467Y-107007168D01*
X132169346Y-107003758D01*
X132181175Y-106994179D01*
X132199763Y-106981688D01*
X132213115Y-106974348D01*
X132218645Y-106969574D01*
X132219540Y-106968802D01*
X132219547Y-106968796D01*
X132221291Y-106967290D01*
X132246034Y-106942547D01*
X132255835Y-106933721D01*
X132280738Y-106913556D01*
X132280741Y-106913553D01*
X132287413Y-106908150D01*
X132298432Y-106892645D01*
X132312042Y-106876540D01*
X132351318Y-106837264D01*
X132413630Y-106803238D01*
X132484445Y-106808303D01*
X132541281Y-106850850D01*
X132558394Y-106882127D01*
X132571679Y-106917564D01*
X132577059Y-106924743D01*
X132577061Y-106924746D01*
X132638835Y-107007170D01*
X132658346Y-107033204D01*
X132665526Y-107038585D01*
X132766804Y-107114489D01*
X132766807Y-107114491D01*
X132773986Y-107119871D01*
X132846514Y-107147060D01*
X132901907Y-107167826D01*
X132901909Y-107167826D01*
X132909302Y-107170598D01*
X132917152Y-107171451D01*
X132917153Y-107171451D01*
X132966382Y-107176799D01*
X132970994Y-107177300D01*
X133591506Y-107177300D01*
X133596118Y-107176799D01*
X133645347Y-107171451D01*
X133645348Y-107171451D01*
X133653198Y-107170598D01*
X133660591Y-107167826D01*
X133660593Y-107167826D01*
X133715986Y-107147060D01*
X133788514Y-107119871D01*
X133795693Y-107114491D01*
X133795696Y-107114489D01*
X133896974Y-107038585D01*
X133904154Y-107033204D01*
X133923665Y-107007170D01*
X133985439Y-106924746D01*
X133985441Y-106924743D01*
X133990821Y-106917564D01*
X134036940Y-106794540D01*
X134038776Y-106789643D01*
X134038776Y-106789641D01*
X134041548Y-106782248D01*
X134048250Y-106720556D01*
X134339250Y-106720556D01*
X134345952Y-106782248D01*
X134348724Y-106789641D01*
X134348724Y-106789643D01*
X134350560Y-106794540D01*
X134396679Y-106917564D01*
X134402059Y-106924743D01*
X134402061Y-106924746D01*
X134463835Y-107007170D01*
X134483346Y-107033204D01*
X134490526Y-107038585D01*
X134591804Y-107114489D01*
X134591807Y-107114491D01*
X134598986Y-107119871D01*
X134671514Y-107147060D01*
X134726907Y-107167826D01*
X134726909Y-107167826D01*
X134734302Y-107170598D01*
X134742152Y-107171451D01*
X134742153Y-107171451D01*
X134791382Y-107176799D01*
X134795994Y-107177300D01*
X135416506Y-107177300D01*
X135421118Y-107176799D01*
X135470347Y-107171451D01*
X135470348Y-107171451D01*
X135478198Y-107170598D01*
X135485591Y-107167826D01*
X135485593Y-107167826D01*
X135540986Y-107147060D01*
X135613514Y-107119871D01*
X135620693Y-107114491D01*
X135620696Y-107114489D01*
X135721974Y-107038585D01*
X135729154Y-107033204D01*
X135748665Y-107007170D01*
X135810439Y-106924746D01*
X135810441Y-106924743D01*
X135815821Y-106917564D01*
X135831200Y-106876540D01*
X135837749Y-106859071D01*
X135880390Y-106802306D01*
X135946952Y-106777606D01*
X135955731Y-106777300D01*
X136005702Y-106777300D01*
X136073823Y-106797302D01*
X136120316Y-106850958D01*
X136123671Y-106859037D01*
X136146817Y-106920782D01*
X136152201Y-106927965D01*
X136152201Y-106927966D01*
X136201692Y-106994001D01*
X136232411Y-107034989D01*
X136239592Y-107040371D01*
X136301801Y-107086994D01*
X136346618Y-107120583D01*
X136355026Y-107123735D01*
X136472860Y-107167908D01*
X136472862Y-107167909D01*
X136480258Y-107170681D01*
X136513847Y-107174330D01*
X136536583Y-107176800D01*
X136541185Y-107177300D01*
X136832057Y-107177300D01*
X137123014Y-107177299D01*
X137126408Y-107176930D01*
X137126414Y-107176930D01*
X137176083Y-107171535D01*
X137176086Y-107171534D01*
X137183942Y-107170681D01*
X137192655Y-107167415D01*
X137309174Y-107123735D01*
X137317582Y-107120583D01*
X137362400Y-107086994D01*
X137424608Y-107040371D01*
X137431789Y-107034989D01*
X137462508Y-106994001D01*
X137511999Y-106927966D01*
X137511999Y-106927965D01*
X137517383Y-106920782D01*
X137524744Y-106901147D01*
X137564708Y-106794540D01*
X137564709Y-106794538D01*
X137567481Y-106787142D01*
X137574100Y-106726215D01*
X137574100Y-106722742D01*
X137965601Y-106722742D01*
X137965970Y-106729560D01*
X137971359Y-106779176D01*
X137974988Y-106794435D01*
X138019111Y-106912135D01*
X138027643Y-106927720D01*
X138102387Y-107027450D01*
X138114950Y-107040013D01*
X138214680Y-107114757D01*
X138230265Y-107123289D01*
X138347971Y-107167415D01*
X138363217Y-107171040D01*
X138412842Y-107176431D01*
X138419656Y-107176800D01*
X138561485Y-107176800D01*
X138576724Y-107172325D01*
X138577929Y-107170935D01*
X138579600Y-107163252D01*
X138579600Y-107158684D01*
X138834600Y-107158684D01*
X138839075Y-107173923D01*
X138840465Y-107175128D01*
X138848148Y-107176799D01*
X138994542Y-107176799D01*
X139001360Y-107176430D01*
X139050976Y-107171041D01*
X139066235Y-107167412D01*
X139183935Y-107123289D01*
X139199520Y-107114757D01*
X139299250Y-107040013D01*
X139311813Y-107027450D01*
X139386557Y-106927720D01*
X139395089Y-106912135D01*
X139439215Y-106794429D01*
X139442840Y-106779183D01*
X139448231Y-106729558D01*
X139448600Y-106722744D01*
X139448600Y-106368415D01*
X139444125Y-106353176D01*
X139442735Y-106351971D01*
X139435052Y-106350300D01*
X138852715Y-106350300D01*
X138837476Y-106354775D01*
X138836271Y-106356165D01*
X138834600Y-106363848D01*
X138834600Y-107158684D01*
X138579600Y-107158684D01*
X138579600Y-106368415D01*
X138575125Y-106353176D01*
X138573735Y-106351971D01*
X138566052Y-106350300D01*
X137983716Y-106350300D01*
X137968477Y-106354775D01*
X137967272Y-106356165D01*
X137965601Y-106363848D01*
X137965601Y-106722742D01*
X137574100Y-106722742D01*
X137574099Y-106077185D01*
X137965600Y-106077185D01*
X137970075Y-106092424D01*
X137971465Y-106093629D01*
X137979148Y-106095300D01*
X138561485Y-106095300D01*
X138576724Y-106090825D01*
X138577929Y-106089435D01*
X138579600Y-106081752D01*
X138579600Y-106077185D01*
X138834600Y-106077185D01*
X138839075Y-106092424D01*
X138840465Y-106093629D01*
X138848148Y-106095300D01*
X139430484Y-106095300D01*
X139445723Y-106090825D01*
X139446928Y-106089435D01*
X139448599Y-106081752D01*
X139448599Y-105722858D01*
X139448230Y-105716040D01*
X139442841Y-105666424D01*
X139439212Y-105651165D01*
X139395089Y-105533465D01*
X139386557Y-105517880D01*
X139311813Y-105418150D01*
X139299250Y-105405587D01*
X139199520Y-105330843D01*
X139183935Y-105322311D01*
X139066229Y-105278185D01*
X139050983Y-105274560D01*
X139001358Y-105269169D01*
X138994544Y-105268800D01*
X138852715Y-105268800D01*
X138837476Y-105273275D01*
X138836271Y-105274665D01*
X138834600Y-105282348D01*
X138834600Y-106077185D01*
X138579600Y-106077185D01*
X138579600Y-105286916D01*
X138575125Y-105271677D01*
X138573735Y-105270472D01*
X138566052Y-105268801D01*
X138419658Y-105268801D01*
X138412840Y-105269170D01*
X138363224Y-105274559D01*
X138347965Y-105278188D01*
X138230265Y-105322311D01*
X138214680Y-105330843D01*
X138114950Y-105405587D01*
X138102387Y-105418150D01*
X138027643Y-105517880D01*
X138019111Y-105533465D01*
X137974985Y-105651171D01*
X137971360Y-105666417D01*
X137965969Y-105716042D01*
X137965600Y-105722856D01*
X137965600Y-106077185D01*
X137574099Y-106077185D01*
X137574099Y-105719386D01*
X137573692Y-105715637D01*
X137568335Y-105666317D01*
X137568334Y-105666314D01*
X137567481Y-105658458D01*
X137555368Y-105626144D01*
X137520535Y-105533226D01*
X137517383Y-105524818D01*
X137510520Y-105515660D01*
X137437171Y-105417792D01*
X137431789Y-105410611D01*
X137317582Y-105325017D01*
X137284395Y-105312576D01*
X137191340Y-105277692D01*
X137191338Y-105277691D01*
X137183942Y-105274919D01*
X137127627Y-105268801D01*
X137126412Y-105268669D01*
X137126411Y-105268669D01*
X137123015Y-105268300D01*
X136832143Y-105268300D01*
X136541186Y-105268301D01*
X136537792Y-105268670D01*
X136537786Y-105268670D01*
X136488117Y-105274065D01*
X136488114Y-105274066D01*
X136480258Y-105274919D01*
X136472856Y-105277694D01*
X136472855Y-105277694D01*
X136448255Y-105286916D01*
X136346618Y-105325017D01*
X136232411Y-105410611D01*
X136227029Y-105417792D01*
X136153681Y-105515660D01*
X136146817Y-105524818D01*
X136123682Y-105586532D01*
X136081044Y-105643293D01*
X136014483Y-105667994D01*
X136005702Y-105668300D01*
X135955731Y-105668300D01*
X135887610Y-105648298D01*
X135841117Y-105594642D01*
X135837749Y-105586529D01*
X135822744Y-105546503D01*
X135815821Y-105528036D01*
X135810441Y-105520857D01*
X135810439Y-105520854D01*
X135734535Y-105419576D01*
X135729154Y-105412396D01*
X135706319Y-105395282D01*
X135620696Y-105331111D01*
X135620693Y-105331109D01*
X135613514Y-105325729D01*
X135486689Y-105278185D01*
X135485593Y-105277774D01*
X135485591Y-105277774D01*
X135478198Y-105275002D01*
X135470348Y-105274149D01*
X135470347Y-105274149D01*
X135419903Y-105268669D01*
X135419902Y-105268669D01*
X135416506Y-105268300D01*
X134795994Y-105268300D01*
X134792598Y-105268669D01*
X134792597Y-105268669D01*
X134742153Y-105274149D01*
X134742152Y-105274149D01*
X134734302Y-105275002D01*
X134726909Y-105277774D01*
X134726907Y-105277774D01*
X134725811Y-105278185D01*
X134598986Y-105325729D01*
X134591807Y-105331109D01*
X134591804Y-105331111D01*
X134506181Y-105395282D01*
X134483346Y-105412396D01*
X134477965Y-105419576D01*
X134402061Y-105520854D01*
X134402059Y-105520857D01*
X134396679Y-105528036D01*
X134370190Y-105598696D01*
X134350521Y-105651165D01*
X134345952Y-105663352D01*
X134345099Y-105671202D01*
X134345099Y-105671203D01*
X134340272Y-105715637D01*
X134339250Y-105725044D01*
X134339250Y-106720556D01*
X134048250Y-106720556D01*
X134048250Y-105725044D01*
X134047228Y-105715637D01*
X134042401Y-105671203D01*
X134042401Y-105671202D01*
X134041548Y-105663352D01*
X134036980Y-105651165D01*
X134017310Y-105598696D01*
X133990821Y-105528036D01*
X133985441Y-105520857D01*
X133985439Y-105520854D01*
X133909535Y-105419576D01*
X133904154Y-105412396D01*
X133881319Y-105395282D01*
X133795696Y-105331111D01*
X133795693Y-105331109D01*
X133788514Y-105325729D01*
X133661689Y-105278185D01*
X133660593Y-105277774D01*
X133660591Y-105277774D01*
X133653198Y-105275002D01*
X133645348Y-105274149D01*
X133645347Y-105274149D01*
X133594903Y-105268669D01*
X133594902Y-105268669D01*
X133591506Y-105268300D01*
X132970994Y-105268300D01*
X132967598Y-105268669D01*
X132967597Y-105268669D01*
X132917153Y-105274149D01*
X132917152Y-105274149D01*
X132909302Y-105275002D01*
X132901909Y-105277774D01*
X132901907Y-105277774D01*
X132900811Y-105278185D01*
X132773986Y-105325729D01*
X132766807Y-105331109D01*
X132766804Y-105331111D01*
X132681181Y-105395282D01*
X132658346Y-105412396D01*
X132652965Y-105419576D01*
X132577061Y-105520854D01*
X132577059Y-105520857D01*
X132571679Y-105528036D01*
X132568529Y-105536438D01*
X132564217Y-105544315D01*
X132562891Y-105543589D01*
X132526153Y-105592494D01*
X132459592Y-105617194D01*
X132450813Y-105617500D01*
X132247474Y-105617500D01*
X132242198Y-105617390D01*
X132179726Y-105614772D01*
X132171361Y-105616734D01*
X132137022Y-105624788D01*
X132125348Y-105626951D01*
X132081882Y-105632905D01*
X132069167Y-105638407D01*
X132067906Y-105638953D01*
X132046637Y-105645987D01*
X132031817Y-105649463D01*
X131993363Y-105670603D01*
X131982717Y-105675818D01*
X131950337Y-105689830D01*
X131950333Y-105689832D01*
X131942454Y-105693242D01*
X131935778Y-105698648D01*
X131935775Y-105698650D01*
X131930682Y-105702774D01*
X131865155Y-105730100D01*
X131795257Y-105717662D01*
X131768558Y-105699804D01*
X131745333Y-105679544D01*
X131741954Y-105676596D01*
X131737118Y-105673461D01*
X131625532Y-105601135D01*
X131625531Y-105601135D01*
X131621769Y-105598696D01*
X131554981Y-105567836D01*
X131483647Y-105546503D01*
X131422061Y-105528085D01*
X131422056Y-105528084D01*
X131417763Y-105526800D01*
X131413331Y-105526138D01*
X131413328Y-105526137D01*
X131349431Y-105516588D01*
X131349428Y-105516588D01*
X131345000Y-105515926D01*
X131275095Y-105515499D01*
X131206259Y-105515078D01*
X131206254Y-105515078D01*
X131201779Y-105515051D01*
X131199310Y-105515389D01*
X131195468Y-105515514D01*
X130768750Y-105515514D01*
X130669449Y-105535266D01*
X130663419Y-105539295D01*
X130596377Y-105546503D01*
X130575845Y-105540473D01*
X130568051Y-105535266D01*
X130468750Y-105515514D01*
X129978007Y-105515514D01*
X129977237Y-105515512D01*
X129906265Y-105515078D01*
X129906259Y-105515078D01*
X129901779Y-105515051D01*
X129897336Y-105515660D01*
X129897330Y-105515660D01*
X129866734Y-105519852D01*
X129828888Y-105525036D01*
X129824581Y-105526267D01*
X129824576Y-105526268D01*
X129718001Y-105556727D01*
X129691179Y-105564393D01*
X129687094Y-105566220D01*
X129687092Y-105566221D01*
X129683482Y-105567836D01*
X129624020Y-105594434D01*
X129502892Y-105670860D01*
X129446862Y-105718545D01*
X129443891Y-105721909D01*
X129437002Y-105729710D01*
X129352054Y-105825896D01*
X129311663Y-105887386D01*
X129309756Y-105891448D01*
X129306658Y-105898046D01*
X129259603Y-105951209D01*
X129192602Y-105970500D01*
X129181871Y-105970500D01*
X129113750Y-105950498D01*
X129092776Y-105933595D01*
X128154351Y-104995170D01*
X145686073Y-104995170D01*
X145692905Y-105004916D01*
X145716657Y-105025131D01*
X145726728Y-105032130D01*
X145889897Y-105123322D01*
X145901137Y-105128233D01*
X146078914Y-105185996D01*
X146090888Y-105188629D01*
X146276508Y-105210763D01*
X146288757Y-105211020D01*
X146475138Y-105196679D01*
X146487218Y-105194548D01*
X146667244Y-105144284D01*
X146678694Y-105139843D01*
X146845533Y-105055567D01*
X146855892Y-105048992D01*
X146912344Y-105004887D01*
X146920815Y-104993072D01*
X146914279Y-104981391D01*
X146316812Y-104383924D01*
X146302868Y-104376310D01*
X146301035Y-104376441D01*
X146294420Y-104380692D01*
X145693449Y-104981663D01*
X145686073Y-104995170D01*
X128154351Y-104995170D01*
X126227768Y-103068587D01*
X126224115Y-103064779D01*
X126187584Y-103025052D01*
X126187583Y-103025051D01*
X126181774Y-103018734D01*
X126144494Y-102995619D01*
X126134712Y-102988896D01*
X126109071Y-102969434D01*
X126099765Y-102962370D01*
X126090053Y-102958525D01*
X126085604Y-102956763D01*
X126065598Y-102946700D01*
X126059963Y-102943206D01*
X126059954Y-102943202D01*
X126052656Y-102938677D01*
X126024126Y-102930388D01*
X126010520Y-102926435D01*
X125999298Y-102922593D01*
X125958510Y-102906444D01*
X125944902Y-102905013D01*
X125943367Y-102904852D01*
X125921394Y-102900541D01*
X125906765Y-102896291D01*
X125895993Y-102895500D01*
X125860995Y-102895500D01*
X125847824Y-102894810D01*
X125837607Y-102893736D01*
X125829805Y-102892916D01*
X125815963Y-102891461D01*
X125807419Y-102890563D01*
X125788654Y-102893737D01*
X125767652Y-102895500D01*
X124893668Y-102895500D01*
X124825547Y-102875498D01*
X124797430Y-102850828D01*
X124782162Y-102832761D01*
X124777755Y-102827546D01*
X124772330Y-102823398D01*
X124635685Y-102718925D01*
X124635681Y-102718923D01*
X124630264Y-102714781D01*
X124624084Y-102711899D01*
X124624082Y-102711898D01*
X124468177Y-102639198D01*
X124468174Y-102639197D01*
X124462000Y-102636318D01*
X124455352Y-102634832D01*
X124455349Y-102634831D01*
X124285849Y-102596944D01*
X124285850Y-102596944D01*
X124280812Y-102595818D01*
X124275124Y-102595500D01*
X123588615Y-102595500D01*
X123450427Y-102610512D01*
X123365189Y-102639198D01*
X123280936Y-102667552D01*
X123280934Y-102667553D01*
X123274465Y-102669730D01*
X123115323Y-102765351D01*
X123110366Y-102770039D01*
X123110363Y-102770041D01*
X122985386Y-102888227D01*
X122980428Y-102892916D01*
X122876072Y-103046471D01*
X122873539Y-103052805D01*
X122873537Y-103052808D01*
X122809658Y-103212516D01*
X122809657Y-103212521D01*
X122807124Y-103218853D01*
X122806010Y-103225580D01*
X122806009Y-103225585D01*
X122779277Y-103387062D01*
X122776801Y-103402019D01*
X121493361Y-103402019D01*
X121498487Y-101402934D01*
X121518664Y-101334866D01*
X121572439Y-101288511D01*
X121642738Y-101278587D01*
X121707243Y-101308245D01*
X121713582Y-101314163D01*
X122230832Y-101831413D01*
X122234485Y-101835221D01*
X122276826Y-101881266D01*
X122284121Y-101885789D01*
X122284122Y-101885790D01*
X122314106Y-101904381D01*
X122323888Y-101911104D01*
X122358835Y-101937630D01*
X122366820Y-101940791D01*
X122366819Y-101940791D01*
X122372996Y-101943237D01*
X122393002Y-101953300D01*
X122398637Y-101956794D01*
X122398646Y-101956798D01*
X122405944Y-101961323D01*
X122414191Y-101963719D01*
X122448080Y-101973565D01*
X122459302Y-101977407D01*
X122500090Y-101993556D01*
X122513698Y-101994987D01*
X122515233Y-101995148D01*
X122537205Y-101999459D01*
X122551835Y-102003709D01*
X122562607Y-102004500D01*
X122597605Y-102004500D01*
X122610775Y-102005190D01*
X122624827Y-102006667D01*
X122642637Y-102008539D01*
X122651181Y-102009437D01*
X122669946Y-102006263D01*
X122690948Y-102004500D01*
X122926332Y-102004500D01*
X122994453Y-102024502D01*
X123022570Y-102049172D01*
X123042245Y-102072454D01*
X123047668Y-102076601D01*
X123047670Y-102076602D01*
X123184315Y-102181075D01*
X123184319Y-102181077D01*
X123189736Y-102185219D01*
X123195916Y-102188101D01*
X123195918Y-102188102D01*
X123351823Y-102260802D01*
X123351826Y-102260803D01*
X123358000Y-102263682D01*
X123364648Y-102265168D01*
X123364651Y-102265169D01*
X123463711Y-102287311D01*
X123539188Y-102304182D01*
X123544876Y-102304500D01*
X124231385Y-102304500D01*
X124369573Y-102289488D01*
X124490210Y-102248889D01*
X124539064Y-102232448D01*
X124539066Y-102232447D01*
X124545535Y-102230270D01*
X124704677Y-102134649D01*
X124709634Y-102129961D01*
X124709637Y-102129959D01*
X124805873Y-102038952D01*
X124869110Y-102006680D01*
X124892446Y-102004500D01*
X125868129Y-102004500D01*
X125936250Y-102024502D01*
X125957224Y-102041405D01*
X128197244Y-104281426D01*
X128200897Y-104285234D01*
X128243226Y-104331266D01*
X128280505Y-104354380D01*
X128290268Y-104361089D01*
X128300752Y-104369047D01*
X128318393Y-104382438D01*
X128318396Y-104382440D01*
X128325234Y-104387630D01*
X128339396Y-104393237D01*
X128359410Y-104403303D01*
X128372344Y-104411323D01*
X128380591Y-104413719D01*
X128380593Y-104413720D01*
X128402720Y-104420148D01*
X128414476Y-104423564D01*
X128425701Y-104427408D01*
X128458498Y-104440393D01*
X128458505Y-104440395D01*
X128466490Y-104443556D01*
X128480098Y-104444987D01*
X128481633Y-104445148D01*
X128503605Y-104449459D01*
X128518235Y-104453709D01*
X128529007Y-104454500D01*
X128564005Y-104454500D01*
X128577175Y-104455190D01*
X128591227Y-104456667D01*
X128609037Y-104458539D01*
X128617581Y-104459437D01*
X128636346Y-104456263D01*
X128657348Y-104454500D01*
X129191446Y-104454500D01*
X129259567Y-104474502D01*
X129302147Y-104520894D01*
X129302389Y-104521444D01*
X129304758Y-104525250D01*
X129338902Y-104580106D01*
X129338906Y-104580112D01*
X129341266Y-104583903D01*
X129344142Y-104587324D01*
X129344146Y-104587330D01*
X129420550Y-104678224D01*
X129433423Y-104693538D01*
X129436765Y-104696526D01*
X129484923Y-104739585D01*
X129484928Y-104739589D01*
X129488270Y-104742577D01*
X129492003Y-104745062D01*
X129492007Y-104745065D01*
X129603767Y-104819459D01*
X129603773Y-104819462D01*
X129607495Y-104821940D01*
X129673900Y-104853614D01*
X129678175Y-104854949D01*
X129678181Y-104854952D01*
X129806319Y-104894985D01*
X129806324Y-104894986D01*
X129810606Y-104896324D01*
X129883231Y-104908086D01*
X130010294Y-104910415D01*
X130021956Y-104910629D01*
X130026430Y-104910711D01*
X130030872Y-104910158D01*
X130035352Y-104909921D01*
X130035358Y-104910027D01*
X130044082Y-104909486D01*
X130468750Y-104909486D01*
X130568051Y-104889734D01*
X130574081Y-104885705D01*
X130641123Y-104878497D01*
X130661655Y-104884527D01*
X130669449Y-104889734D01*
X130768750Y-104909486D01*
X131258441Y-104909486D01*
X131260749Y-104909507D01*
X131326430Y-104910711D01*
X131399440Y-104901617D01*
X131537620Y-104863944D01*
X131565956Y-104851682D01*
X131601016Y-104836511D01*
X131601021Y-104836509D01*
X131605140Y-104834726D01*
X131727192Y-104759786D01*
X131783798Y-104712791D01*
X131786797Y-104709478D01*
X131786801Y-104709474D01*
X131874407Y-104612689D01*
X131879912Y-104606607D01*
X131921054Y-104545611D01*
X131930767Y-104525563D01*
X131978469Y-104472979D01*
X132044160Y-104454500D01*
X132416141Y-104454500D01*
X132484262Y-104474502D01*
X132530755Y-104528158D01*
X132534121Y-104536265D01*
X132546679Y-104569764D01*
X132552059Y-104576943D01*
X132552061Y-104576946D01*
X132578041Y-104611611D01*
X132633346Y-104685404D01*
X132640526Y-104690785D01*
X132741804Y-104766689D01*
X132741807Y-104766691D01*
X132748986Y-104772071D01*
X132827748Y-104801597D01*
X132876907Y-104820026D01*
X132876909Y-104820026D01*
X132884302Y-104822798D01*
X132892152Y-104823651D01*
X132892153Y-104823651D01*
X132941382Y-104828999D01*
X132945994Y-104829500D01*
X133566506Y-104829500D01*
X133571118Y-104828999D01*
X133620347Y-104823651D01*
X133620348Y-104823651D01*
X133628198Y-104822798D01*
X133635591Y-104820026D01*
X133635593Y-104820026D01*
X133684752Y-104801597D01*
X133763514Y-104772071D01*
X133770693Y-104766691D01*
X133770696Y-104766689D01*
X133871974Y-104690785D01*
X133879154Y-104685404D01*
X133934459Y-104611611D01*
X133960439Y-104576946D01*
X133960441Y-104576943D01*
X133965821Y-104569764D01*
X134007517Y-104458539D01*
X134013776Y-104441843D01*
X134013776Y-104441841D01*
X134016548Y-104434448D01*
X134019932Y-104403303D01*
X134022881Y-104376153D01*
X134022881Y-104376152D01*
X134023250Y-104372756D01*
X134314250Y-104372756D01*
X134314619Y-104376152D01*
X134314619Y-104376153D01*
X134317569Y-104403303D01*
X134320952Y-104434448D01*
X134323724Y-104441841D01*
X134323724Y-104441843D01*
X134329983Y-104458539D01*
X134371679Y-104569764D01*
X134377059Y-104576943D01*
X134377061Y-104576946D01*
X134403041Y-104611611D01*
X134458346Y-104685404D01*
X134465526Y-104690785D01*
X134566804Y-104766689D01*
X134566807Y-104766691D01*
X134573986Y-104772071D01*
X134652748Y-104801597D01*
X134701907Y-104820026D01*
X134701909Y-104820026D01*
X134709302Y-104822798D01*
X134717152Y-104823651D01*
X134717153Y-104823651D01*
X134766382Y-104828999D01*
X134770994Y-104829500D01*
X135391506Y-104829500D01*
X135396118Y-104828999D01*
X135445347Y-104823651D01*
X135445348Y-104823651D01*
X135453198Y-104822798D01*
X135460591Y-104820026D01*
X135460593Y-104820026D01*
X135509752Y-104801597D01*
X135588514Y-104772071D01*
X135595693Y-104766691D01*
X135595696Y-104766689D01*
X135696974Y-104690785D01*
X135704154Y-104685404D01*
X135759459Y-104611611D01*
X135785439Y-104576946D01*
X135785441Y-104576943D01*
X135790821Y-104569764D01*
X135808935Y-104521444D01*
X135812749Y-104511271D01*
X135855390Y-104454506D01*
X135921952Y-104429806D01*
X135930731Y-104429500D01*
X135954852Y-104429500D01*
X136022973Y-104449502D01*
X136069466Y-104503158D01*
X136072821Y-104511237D01*
X136095967Y-104572982D01*
X136101351Y-104580165D01*
X136101351Y-104580166D01*
X136143435Y-104636318D01*
X136181561Y-104687189D01*
X136188742Y-104692571D01*
X136285852Y-104765351D01*
X136295768Y-104772783D01*
X136304176Y-104775935D01*
X136422010Y-104820108D01*
X136422012Y-104820109D01*
X136429408Y-104822881D01*
X136470342Y-104827328D01*
X136485733Y-104829000D01*
X136490335Y-104829500D01*
X136781207Y-104829500D01*
X137072164Y-104829499D01*
X137075558Y-104829130D01*
X137075564Y-104829130D01*
X137125233Y-104823735D01*
X137125236Y-104823734D01*
X137133092Y-104822881D01*
X137141805Y-104819615D01*
X137258324Y-104775935D01*
X137266732Y-104772783D01*
X137276649Y-104765351D01*
X137373758Y-104692571D01*
X137380939Y-104687189D01*
X137419065Y-104636318D01*
X137461149Y-104580166D01*
X137461149Y-104580165D01*
X137466533Y-104572982D01*
X137471138Y-104560698D01*
X137513858Y-104446740D01*
X137513859Y-104446738D01*
X137516631Y-104439342D01*
X137521640Y-104393235D01*
X137522881Y-104381812D01*
X137522881Y-104381811D01*
X137523250Y-104378415D01*
X137523250Y-104374942D01*
X137914751Y-104374942D01*
X137915120Y-104381760D01*
X137920509Y-104431376D01*
X137924138Y-104446635D01*
X137968261Y-104564335D01*
X137976793Y-104579920D01*
X138051537Y-104679650D01*
X138064100Y-104692213D01*
X138163830Y-104766957D01*
X138179415Y-104775489D01*
X138297121Y-104819615D01*
X138312367Y-104823240D01*
X138361992Y-104828631D01*
X138368806Y-104829000D01*
X138510635Y-104829000D01*
X138525874Y-104824525D01*
X138527079Y-104823135D01*
X138528750Y-104815452D01*
X138528750Y-104810884D01*
X138783750Y-104810884D01*
X138788225Y-104826123D01*
X138789615Y-104827328D01*
X138797298Y-104828999D01*
X138943692Y-104828999D01*
X138950510Y-104828630D01*
X139000126Y-104823241D01*
X139015385Y-104819612D01*
X139133085Y-104775489D01*
X139148670Y-104766957D01*
X139248400Y-104692213D01*
X139260963Y-104679650D01*
X139335707Y-104579920D01*
X139344239Y-104564335D01*
X139388365Y-104446629D01*
X139391990Y-104431383D01*
X139397381Y-104381758D01*
X139397750Y-104374944D01*
X139397750Y-104182690D01*
X145283700Y-104182690D01*
X145299340Y-104368954D01*
X145301555Y-104381019D01*
X145353077Y-104560698D01*
X145357595Y-104572110D01*
X145443032Y-104738353D01*
X145449682Y-104748671D01*
X145489777Y-104799258D01*
X145501770Y-104807729D01*
X145513215Y-104801273D01*
X146110876Y-104203612D01*
X146117254Y-104191932D01*
X146489510Y-104191932D01*
X146489641Y-104193765D01*
X146493892Y-104200380D01*
X147095109Y-104801597D01*
X147108736Y-104809038D01*
X147118301Y-104802384D01*
X147134207Y-104783956D01*
X147141281Y-104773929D01*
X147233606Y-104611407D01*
X147238600Y-104600191D01*
X147297599Y-104422834D01*
X147300319Y-104410863D01*
X147324075Y-104222810D01*
X147324567Y-104215781D01*
X147324867Y-104194305D01*
X147324574Y-104187312D01*
X147323518Y-104176539D01*
X150362682Y-104176539D01*
X150379362Y-104375186D01*
X150397759Y-104439342D01*
X150432558Y-104560698D01*
X150434310Y-104566809D01*
X150454579Y-104606248D01*
X150510802Y-104715647D01*
X150525430Y-104744111D01*
X150649253Y-104900337D01*
X150801063Y-105029537D01*
X150806441Y-105032543D01*
X150806443Y-105032544D01*
X150847638Y-105055567D01*
X150975076Y-105126789D01*
X150980935Y-105128693D01*
X150980938Y-105128694D01*
X151016701Y-105140314D01*
X151164665Y-105188391D01*
X151170775Y-105189120D01*
X151170777Y-105189120D01*
X151238314Y-105197173D01*
X151362609Y-105211994D01*
X151368744Y-105211522D01*
X151368746Y-105211522D01*
X151555226Y-105197173D01*
X151555231Y-105197172D01*
X151561367Y-105196700D01*
X151567297Y-105195044D01*
X151567299Y-105195044D01*
X151657369Y-105169896D01*
X151753370Y-105143092D01*
X151772195Y-105133583D01*
X151925802Y-105055991D01*
X151925804Y-105055990D01*
X151931303Y-105053212D01*
X152088390Y-104930482D01*
X152110962Y-104904332D01*
X152214618Y-104784246D01*
X152214619Y-104784244D01*
X152218647Y-104779578D01*
X152317112Y-104606248D01*
X152380035Y-104417094D01*
X152394268Y-104304428D01*
X152404578Y-104222823D01*
X152404579Y-104222810D01*
X152405020Y-104219320D01*
X152405418Y-104190800D01*
X152385965Y-103992406D01*
X152384184Y-103986507D01*
X152384183Y-103986502D01*
X152330129Y-103807467D01*
X152328348Y-103801568D01*
X152281554Y-103713562D01*
X152237655Y-103630998D01*
X152237653Y-103630995D01*
X152234761Y-103625556D01*
X152230871Y-103620786D01*
X152230868Y-103620782D01*
X152112663Y-103475849D01*
X152112660Y-103475846D01*
X152108768Y-103471074D01*
X151955170Y-103344006D01*
X151779815Y-103249192D01*
X151589385Y-103190244D01*
X151583260Y-103189600D01*
X151583259Y-103189600D01*
X151397260Y-103170051D01*
X151397258Y-103170051D01*
X151391131Y-103169407D01*
X151268252Y-103180590D01*
X151198746Y-103186915D01*
X151198745Y-103186915D01*
X151192605Y-103187474D01*
X151186691Y-103189215D01*
X151186689Y-103189215D01*
X151108465Y-103212238D01*
X151001370Y-103243758D01*
X150824709Y-103336114D01*
X150819909Y-103339974D01*
X150819908Y-103339974D01*
X150818021Y-103341491D01*
X150669351Y-103461025D01*
X150541214Y-103613733D01*
X150445179Y-103788421D01*
X150443318Y-103794288D01*
X150443317Y-103794290D01*
X150415041Y-103883428D01*
X150384902Y-103978435D01*
X150362682Y-104176539D01*
X147323518Y-104176539D01*
X147306074Y-103998636D01*
X147303691Y-103986601D01*
X147249665Y-103807658D01*
X147244990Y-103796317D01*
X147157236Y-103631274D01*
X147150450Y-103621061D01*
X147118596Y-103582005D01*
X147106252Y-103573542D01*
X147095277Y-103579835D01*
X146497124Y-104177988D01*
X146489510Y-104191932D01*
X146117254Y-104191932D01*
X146118490Y-104189668D01*
X146118359Y-104187835D01*
X146114108Y-104181220D01*
X145513348Y-103580460D01*
X145499963Y-103573151D01*
X145490037Y-103580160D01*
X145465586Y-103609299D01*
X145458662Y-103619410D01*
X145368606Y-103783223D01*
X145363778Y-103794487D01*
X145307255Y-103972670D01*
X145304707Y-103984658D01*
X145283871Y-104170421D01*
X145283700Y-104182690D01*
X139397750Y-104182690D01*
X139397750Y-104020615D01*
X139393275Y-104005376D01*
X139391885Y-104004171D01*
X139384202Y-104002500D01*
X138801865Y-104002500D01*
X138786626Y-104006975D01*
X138785421Y-104008365D01*
X138783750Y-104016048D01*
X138783750Y-104810884D01*
X138528750Y-104810884D01*
X138528750Y-104020615D01*
X138524275Y-104005376D01*
X138522885Y-104004171D01*
X138515202Y-104002500D01*
X137932866Y-104002500D01*
X137917627Y-104006975D01*
X137916422Y-104008365D01*
X137914751Y-104016048D01*
X137914751Y-104374942D01*
X137523250Y-104374942D01*
X137523249Y-103729385D01*
X137914750Y-103729385D01*
X137919225Y-103744624D01*
X137920615Y-103745829D01*
X137928298Y-103747500D01*
X138510635Y-103747500D01*
X138525874Y-103743025D01*
X138527079Y-103741635D01*
X138528750Y-103733952D01*
X138528750Y-103729385D01*
X138783750Y-103729385D01*
X138788225Y-103744624D01*
X138789615Y-103745829D01*
X138797298Y-103747500D01*
X139379634Y-103747500D01*
X139394873Y-103743025D01*
X139396078Y-103741635D01*
X139397749Y-103733952D01*
X139397749Y-103388576D01*
X145686923Y-103388576D01*
X145693297Y-103399785D01*
X146291188Y-103997676D01*
X146305132Y-104005290D01*
X146306965Y-104005159D01*
X146313580Y-104000908D01*
X146914164Y-103400324D01*
X146921406Y-103387062D01*
X146914217Y-103376957D01*
X146879639Y-103348351D01*
X146869468Y-103341491D01*
X146705039Y-103252585D01*
X146693734Y-103247833D01*
X146515169Y-103192558D01*
X146503158Y-103190092D01*
X146317255Y-103170553D01*
X146304987Y-103170468D01*
X146118838Y-103187408D01*
X146106791Y-103189706D01*
X145927467Y-103242484D01*
X145916099Y-103247077D01*
X145750443Y-103333680D01*
X145740181Y-103340396D01*
X145695392Y-103376407D01*
X145686923Y-103388576D01*
X139397749Y-103388576D01*
X139397749Y-103375058D01*
X139397380Y-103368240D01*
X139391991Y-103318624D01*
X139388362Y-103303365D01*
X139344239Y-103185665D01*
X139335707Y-103170080D01*
X139260963Y-103070350D01*
X139248400Y-103057787D01*
X139148670Y-102983043D01*
X139133085Y-102974511D01*
X139015379Y-102930385D01*
X139000133Y-102926760D01*
X138950508Y-102921369D01*
X138943694Y-102921000D01*
X138801865Y-102921000D01*
X138786626Y-102925475D01*
X138785421Y-102926865D01*
X138783750Y-102934548D01*
X138783750Y-103729385D01*
X138528750Y-103729385D01*
X138528750Y-102939116D01*
X138524275Y-102923877D01*
X138522885Y-102922672D01*
X138515202Y-102921001D01*
X138368808Y-102921001D01*
X138361990Y-102921370D01*
X138312374Y-102926759D01*
X138297115Y-102930388D01*
X138179415Y-102974511D01*
X138163830Y-102983043D01*
X138064100Y-103057787D01*
X138051537Y-103070350D01*
X137976793Y-103170080D01*
X137968261Y-103185665D01*
X137924135Y-103303371D01*
X137920510Y-103318617D01*
X137915119Y-103368242D01*
X137914750Y-103375056D01*
X137914750Y-103729385D01*
X137523249Y-103729385D01*
X137523249Y-103371586D01*
X137522880Y-103368186D01*
X137517485Y-103318517D01*
X137517484Y-103318514D01*
X137516631Y-103310658D01*
X137504224Y-103277560D01*
X137469685Y-103185426D01*
X137466533Y-103177018D01*
X137380939Y-103062811D01*
X137373758Y-103057429D01*
X137273916Y-102982601D01*
X137273915Y-102982601D01*
X137266732Y-102977217D01*
X137258324Y-102974065D01*
X137140490Y-102929892D01*
X137140488Y-102929891D01*
X137133092Y-102927119D01*
X137087714Y-102922189D01*
X137075562Y-102920869D01*
X137075561Y-102920869D01*
X137072165Y-102920500D01*
X136781293Y-102920500D01*
X136490336Y-102920501D01*
X136486942Y-102920870D01*
X136486936Y-102920870D01*
X136437267Y-102926265D01*
X136437264Y-102926266D01*
X136429408Y-102927119D01*
X136422006Y-102929894D01*
X136422005Y-102929894D01*
X136304176Y-102974065D01*
X136295768Y-102977217D01*
X136288585Y-102982601D01*
X136288584Y-102982601D01*
X136188742Y-103057429D01*
X136181561Y-103062811D01*
X136095967Y-103177018D01*
X136072832Y-103238732D01*
X136030194Y-103295493D01*
X135963633Y-103320194D01*
X135954852Y-103320500D01*
X135930731Y-103320500D01*
X135862610Y-103300498D01*
X135816117Y-103246842D01*
X135812749Y-103238729D01*
X135801402Y-103208462D01*
X135790821Y-103180236D01*
X135785441Y-103173057D01*
X135785439Y-103173054D01*
X135709535Y-103071776D01*
X135704154Y-103064596D01*
X135672440Y-103040828D01*
X135595696Y-102983311D01*
X135595693Y-102983309D01*
X135588514Y-102977929D01*
X135461689Y-102930385D01*
X135460593Y-102929974D01*
X135460591Y-102929974D01*
X135453198Y-102927202D01*
X135445348Y-102926349D01*
X135445347Y-102926349D01*
X135394903Y-102920869D01*
X135394902Y-102920869D01*
X135391506Y-102920500D01*
X134770994Y-102920500D01*
X134767598Y-102920869D01*
X134767597Y-102920869D01*
X134717153Y-102926349D01*
X134717152Y-102926349D01*
X134709302Y-102927202D01*
X134701909Y-102929974D01*
X134701907Y-102929974D01*
X134700811Y-102930385D01*
X134573986Y-102977929D01*
X134566807Y-102983309D01*
X134566804Y-102983311D01*
X134490060Y-103040828D01*
X134458346Y-103064596D01*
X134452965Y-103071776D01*
X134377061Y-103173054D01*
X134377059Y-103173057D01*
X134371679Y-103180236D01*
X134354679Y-103225585D01*
X134325521Y-103303365D01*
X134320952Y-103315552D01*
X134320099Y-103323402D01*
X134320099Y-103323403D01*
X134317434Y-103347935D01*
X134314250Y-103377244D01*
X134314250Y-104372756D01*
X134023250Y-104372756D01*
X134023250Y-103377244D01*
X134020066Y-103347935D01*
X134017401Y-103323403D01*
X134017401Y-103323402D01*
X134016548Y-103315552D01*
X134011980Y-103303365D01*
X133982821Y-103225585D01*
X133965821Y-103180236D01*
X133960441Y-103173057D01*
X133960439Y-103173054D01*
X133884535Y-103071776D01*
X133879154Y-103064596D01*
X133847440Y-103040828D01*
X133770696Y-102983311D01*
X133770693Y-102983309D01*
X133763514Y-102977929D01*
X133636689Y-102930385D01*
X133635593Y-102929974D01*
X133635591Y-102929974D01*
X133628198Y-102927202D01*
X133620348Y-102926349D01*
X133620347Y-102926349D01*
X133569903Y-102920869D01*
X133569902Y-102920869D01*
X133566506Y-102920500D01*
X132945994Y-102920500D01*
X132942598Y-102920869D01*
X132942597Y-102920869D01*
X132892153Y-102926349D01*
X132892152Y-102926349D01*
X132884302Y-102927202D01*
X132876909Y-102929974D01*
X132876907Y-102929974D01*
X132875811Y-102930385D01*
X132748986Y-102977929D01*
X132741807Y-102983309D01*
X132741804Y-102983311D01*
X132665060Y-103040828D01*
X132633346Y-103064596D01*
X132627965Y-103071776D01*
X132552061Y-103173054D01*
X132552059Y-103173057D01*
X132546679Y-103180236D01*
X132536098Y-103208462D01*
X132515379Y-103263729D01*
X132472738Y-103320494D01*
X132406176Y-103345194D01*
X132397397Y-103345500D01*
X132045774Y-103345500D01*
X131977653Y-103325498D01*
X131936176Y-103277560D01*
X131934519Y-103278460D01*
X131932379Y-103274522D01*
X131930524Y-103270443D01*
X131910242Y-103238728D01*
X131893301Y-103212238D01*
X131893300Y-103212236D01*
X131890886Y-103208462D01*
X131797396Y-103099961D01*
X131741954Y-103051596D01*
X131734048Y-103046471D01*
X131625532Y-102976135D01*
X131625531Y-102976135D01*
X131621769Y-102973696D01*
X131554981Y-102942836D01*
X131480293Y-102920500D01*
X131422061Y-102903085D01*
X131422056Y-102903084D01*
X131417763Y-102901800D01*
X131413331Y-102901138D01*
X131413328Y-102901137D01*
X131349431Y-102891588D01*
X131349428Y-102891588D01*
X131345000Y-102890926D01*
X131275095Y-102890499D01*
X131206259Y-102890078D01*
X131206254Y-102890078D01*
X131201779Y-102890051D01*
X131199310Y-102890389D01*
X131195468Y-102890514D01*
X130768750Y-102890514D01*
X130669449Y-102910266D01*
X130663419Y-102914295D01*
X130596377Y-102921503D01*
X130575845Y-102915473D01*
X130568051Y-102910266D01*
X130468750Y-102890514D01*
X129978007Y-102890514D01*
X129977237Y-102890512D01*
X129906265Y-102890078D01*
X129906259Y-102890078D01*
X129901779Y-102890051D01*
X129897336Y-102890660D01*
X129897330Y-102890660D01*
X129867038Y-102894810D01*
X129828888Y-102900036D01*
X129824581Y-102901267D01*
X129824576Y-102901268D01*
X129735014Y-102926865D01*
X129691179Y-102939393D01*
X129687094Y-102941220D01*
X129687092Y-102941221D01*
X129661598Y-102952625D01*
X129624020Y-102969434D01*
X129502892Y-103045860D01*
X129446862Y-103093545D01*
X129443891Y-103096909D01*
X129361937Y-103189706D01*
X129352054Y-103200896D01*
X129340259Y-103218853D01*
X129321527Y-103247370D01*
X129311663Y-103262386D01*
X129309756Y-103266448D01*
X129306658Y-103273046D01*
X129259603Y-103326209D01*
X129192602Y-103345500D01*
X128881871Y-103345500D01*
X128813750Y-103325498D01*
X128792776Y-103308595D01*
X127120720Y-101636539D01*
X147822682Y-101636539D01*
X147839362Y-101835186D01*
X147853057Y-101882946D01*
X147889329Y-102009437D01*
X147894310Y-102026809D01*
X147897125Y-102032286D01*
X147977203Y-102188102D01*
X147985430Y-102204111D01*
X148109253Y-102360337D01*
X148261063Y-102489537D01*
X148266441Y-102492543D01*
X148266443Y-102492544D01*
X148308397Y-102515991D01*
X148435076Y-102586789D01*
X148440935Y-102588693D01*
X148440938Y-102588694D01*
X148466329Y-102596944D01*
X148624665Y-102648391D01*
X148630775Y-102649120D01*
X148630777Y-102649120D01*
X148698314Y-102657173D01*
X148822609Y-102671994D01*
X148828744Y-102671522D01*
X148828746Y-102671522D01*
X149015226Y-102657173D01*
X149015231Y-102657172D01*
X149021367Y-102656700D01*
X149027297Y-102655044D01*
X149027299Y-102655044D01*
X149186794Y-102610512D01*
X149213370Y-102603092D01*
X149225541Y-102596944D01*
X149385802Y-102515991D01*
X149385804Y-102515990D01*
X149391303Y-102513212D01*
X149548390Y-102390482D01*
X149570962Y-102364332D01*
X149674618Y-102244246D01*
X149674619Y-102244244D01*
X149678647Y-102239578D01*
X149777112Y-102066248D01*
X149840035Y-101877094D01*
X149846105Y-101829047D01*
X149864578Y-101682823D01*
X149864579Y-101682813D01*
X149865020Y-101679320D01*
X149865418Y-101650800D01*
X149845965Y-101452406D01*
X149844184Y-101446507D01*
X149844183Y-101446502D01*
X149790129Y-101267467D01*
X149788348Y-101261568D01*
X149694761Y-101085556D01*
X149690871Y-101080786D01*
X149690868Y-101080782D01*
X149572663Y-100935849D01*
X149572660Y-100935846D01*
X149568768Y-100931074D01*
X149563161Y-100926435D01*
X149471768Y-100850828D01*
X149415170Y-100804006D01*
X149239815Y-100709192D01*
X149049385Y-100650244D01*
X149043260Y-100649600D01*
X149043259Y-100649600D01*
X148857260Y-100630051D01*
X148857258Y-100630051D01*
X148851131Y-100629407D01*
X148728252Y-100640590D01*
X148658746Y-100646915D01*
X148658745Y-100646915D01*
X148652605Y-100647474D01*
X148646691Y-100649215D01*
X148646689Y-100649215D01*
X148542197Y-100679969D01*
X148461370Y-100703758D01*
X148284709Y-100796114D01*
X148279909Y-100799974D01*
X148279908Y-100799974D01*
X148274893Y-100804006D01*
X148129351Y-100921025D01*
X148001214Y-101073733D01*
X147905179Y-101248421D01*
X147903318Y-101254288D01*
X147903317Y-101254290D01*
X147892461Y-101288511D01*
X147844902Y-101438435D01*
X147822682Y-101636539D01*
X127120720Y-101636539D01*
X126552768Y-101068587D01*
X126549115Y-101064779D01*
X126512584Y-101025052D01*
X126512583Y-101025051D01*
X126506774Y-101018734D01*
X126469494Y-100995619D01*
X126459712Y-100988896D01*
X126431605Y-100967562D01*
X126431606Y-100967562D01*
X126424765Y-100962370D01*
X126415053Y-100958525D01*
X126410604Y-100956763D01*
X126390598Y-100946700D01*
X126384963Y-100943206D01*
X126384954Y-100943202D01*
X126377656Y-100938677D01*
X126335521Y-100926435D01*
X126324298Y-100922593D01*
X126283510Y-100906444D01*
X126269902Y-100905013D01*
X126268367Y-100904852D01*
X126246394Y-100900541D01*
X126231765Y-100896291D01*
X126220993Y-100895500D01*
X126185995Y-100895500D01*
X126172824Y-100894810D01*
X126162607Y-100893736D01*
X126154805Y-100892916D01*
X126140963Y-100891461D01*
X126132419Y-100890563D01*
X126113654Y-100893737D01*
X126092652Y-100895500D01*
X124893668Y-100895500D01*
X124825547Y-100875498D01*
X124797430Y-100850828D01*
X124782162Y-100832761D01*
X124777755Y-100827546D01*
X124743134Y-100801076D01*
X124635685Y-100718925D01*
X124635681Y-100718923D01*
X124630264Y-100714781D01*
X124624084Y-100711899D01*
X124624082Y-100711898D01*
X124468177Y-100639198D01*
X124468174Y-100639197D01*
X124462000Y-100636318D01*
X124455352Y-100634832D01*
X124455349Y-100634831D01*
X124285849Y-100596944D01*
X124285850Y-100596944D01*
X124280812Y-100595818D01*
X124275124Y-100595500D01*
X123588615Y-100595500D01*
X123450427Y-100610512D01*
X123365189Y-100639198D01*
X123280936Y-100667552D01*
X123280934Y-100667553D01*
X123274465Y-100669730D01*
X123115323Y-100765351D01*
X123110366Y-100770039D01*
X123110363Y-100770041D01*
X123014127Y-100861048D01*
X122950890Y-100893320D01*
X122927554Y-100895500D01*
X122915473Y-100895500D01*
X122847352Y-100875498D01*
X122826378Y-100858596D01*
X122613005Y-100645224D01*
X122578980Y-100582912D01*
X122576100Y-100556128D01*
X122576100Y-100039962D01*
X122596102Y-99971841D01*
X122649758Y-99925348D01*
X122720032Y-99915244D01*
X122784612Y-99944738D01*
X122820082Y-99995733D01*
X122835222Y-100036118D01*
X122843754Y-100051704D01*
X122919572Y-100152867D01*
X122932133Y-100165428D01*
X123033296Y-100241246D01*
X123048882Y-100249778D01*
X123168265Y-100294533D01*
X123183510Y-100298158D01*
X123233892Y-100303631D01*
X123240706Y-100304000D01*
X123764385Y-100304000D01*
X123779624Y-100299525D01*
X123780829Y-100298135D01*
X123782500Y-100290452D01*
X123782500Y-100285884D01*
X124037500Y-100285884D01*
X124041975Y-100301123D01*
X124043365Y-100302328D01*
X124051048Y-100303999D01*
X124579292Y-100303999D01*
X124586110Y-100303630D01*
X124636482Y-100298159D01*
X124651741Y-100294530D01*
X124771118Y-100249778D01*
X124786704Y-100241246D01*
X124887867Y-100165428D01*
X124900428Y-100152867D01*
X124976246Y-100051704D01*
X124984778Y-100036118D01*
X125000548Y-99994053D01*
X137045500Y-99994053D01*
X137060738Y-100124754D01*
X137063234Y-100131631D01*
X137063235Y-100131634D01*
X137106119Y-100249778D01*
X137120768Y-100290134D01*
X137124778Y-100296251D01*
X137124780Y-100296254D01*
X137129616Y-100303630D01*
X137217234Y-100437268D01*
X137344960Y-100558264D01*
X137497096Y-100646632D01*
X137665480Y-100697630D01*
X137841080Y-100708524D01*
X137848296Y-100707284D01*
X137848298Y-100707284D01*
X138007262Y-100679969D01*
X138007264Y-100679968D01*
X138014477Y-100678729D01*
X138176368Y-100609844D01*
X138318071Y-100505563D01*
X138431982Y-100371480D01*
X138466440Y-100303999D01*
X138508666Y-100221305D01*
X138508668Y-100221300D01*
X138511993Y-100214788D01*
X138524072Y-100165428D01*
X138552476Y-100049346D01*
X138553811Y-100043892D01*
X138554159Y-100038287D01*
X138554380Y-100034725D01*
X138554380Y-100034716D01*
X138554500Y-100032786D01*
X138554500Y-97230947D01*
X138539262Y-97100246D01*
X138479232Y-96934866D01*
X138382766Y-96787732D01*
X138255040Y-96666736D01*
X138102904Y-96578368D01*
X137934520Y-96527370D01*
X137758920Y-96516476D01*
X137751704Y-96517716D01*
X137751702Y-96517716D01*
X137592738Y-96545031D01*
X137592736Y-96545032D01*
X137585523Y-96546271D01*
X137423632Y-96615156D01*
X137281929Y-96719437D01*
X137168018Y-96853520D01*
X137164690Y-96860038D01*
X137091334Y-97003695D01*
X137091332Y-97003700D01*
X137088007Y-97010212D01*
X137046189Y-97181108D01*
X137045500Y-97192214D01*
X137045500Y-99994053D01*
X125000548Y-99994053D01*
X125029533Y-99916735D01*
X125033158Y-99901490D01*
X125038631Y-99851108D01*
X125039000Y-99844294D01*
X125039000Y-99595615D01*
X125034525Y-99580376D01*
X125033135Y-99579171D01*
X125025452Y-99577500D01*
X124055615Y-99577500D01*
X124040376Y-99581975D01*
X124039171Y-99583365D01*
X124037500Y-99591048D01*
X124037500Y-100285884D01*
X123782500Y-100285884D01*
X123782500Y-99304385D01*
X124037500Y-99304385D01*
X124041975Y-99319624D01*
X124043365Y-99320829D01*
X124051048Y-99322500D01*
X125020884Y-99322500D01*
X125036123Y-99318025D01*
X125037328Y-99316635D01*
X125038999Y-99308952D01*
X125038999Y-99055708D01*
X125038630Y-99048890D01*
X125033159Y-98998518D01*
X125029530Y-98983259D01*
X124984778Y-98863882D01*
X124976246Y-98848296D01*
X124900428Y-98747133D01*
X124887867Y-98734572D01*
X124786704Y-98658754D01*
X124771118Y-98650222D01*
X124651735Y-98605467D01*
X124636490Y-98601842D01*
X124586108Y-98596369D01*
X124579294Y-98596000D01*
X124055615Y-98596000D01*
X124040376Y-98600475D01*
X124039171Y-98601865D01*
X124037500Y-98609548D01*
X124037500Y-99304385D01*
X123782500Y-99304385D01*
X123782500Y-98614116D01*
X123778025Y-98598877D01*
X123776635Y-98597672D01*
X123768952Y-98596001D01*
X123240708Y-98596001D01*
X123233890Y-98596370D01*
X123183518Y-98601841D01*
X123168259Y-98605470D01*
X123048882Y-98650222D01*
X123033296Y-98658754D01*
X122932133Y-98734572D01*
X122919572Y-98747133D01*
X122843754Y-98848296D01*
X122835222Y-98863882D01*
X122820082Y-98904267D01*
X122777441Y-98961032D01*
X122710879Y-98985732D01*
X122641530Y-98970525D01*
X122591412Y-98920239D01*
X122576100Y-98860038D01*
X122576100Y-93676228D01*
X128859501Y-93676228D01*
X128860709Y-93688488D01*
X128871815Y-93744331D01*
X128881133Y-93766827D01*
X128923483Y-93830208D01*
X128940692Y-93847417D01*
X129004075Y-93889768D01*
X129026566Y-93899084D01*
X129082415Y-93910193D01*
X129094670Y-93911400D01*
X130717885Y-93911400D01*
X130733124Y-93906925D01*
X130734329Y-93905535D01*
X130736000Y-93897852D01*
X130736000Y-93893284D01*
X130991000Y-93893284D01*
X130995475Y-93908523D01*
X130996865Y-93909728D01*
X131004548Y-93911399D01*
X132632328Y-93911399D01*
X132644588Y-93910191D01*
X132700431Y-93899085D01*
X132722927Y-93889767D01*
X132786308Y-93847417D01*
X132803517Y-93830208D01*
X132804591Y-93828600D01*
X133969500Y-93828600D01*
X133975430Y-93883759D01*
X133986816Y-93936101D01*
X133994166Y-93962891D01*
X134044269Y-94050878D01*
X134057402Y-94066034D01*
X134082222Y-94094678D01*
X134090762Y-94104534D01*
X134124051Y-94136656D01*
X134213770Y-94183587D01*
X134219706Y-94185330D01*
X134277568Y-94202320D01*
X134277572Y-94202321D01*
X134281891Y-94203589D01*
X134286339Y-94204229D01*
X134286346Y-94204230D01*
X134350552Y-94213461D01*
X134350559Y-94213461D01*
X134355000Y-94214100D01*
X140072000Y-94214100D01*
X140075346Y-94213740D01*
X140075351Y-94213740D01*
X140123795Y-94208532D01*
X140123801Y-94208531D01*
X140127159Y-94208170D01*
X140179501Y-94196784D01*
X140206291Y-94189434D01*
X140213142Y-94185533D01*
X140213144Y-94185532D01*
X140288899Y-94142394D01*
X140294278Y-94139331D01*
X140347934Y-94092838D01*
X140380056Y-94059549D01*
X140426987Y-93969830D01*
X140428730Y-93963894D01*
X140445720Y-93906032D01*
X140445721Y-93906028D01*
X140446989Y-93901709D01*
X140448201Y-93893284D01*
X140456861Y-93833048D01*
X140456861Y-93833041D01*
X140457500Y-93828600D01*
X140457500Y-93248773D01*
X147490350Y-93248773D01*
X147491514Y-93257675D01*
X147491514Y-93257678D01*
X147494437Y-93280027D01*
X147495501Y-93296365D01*
X147495501Y-93302756D01*
X147502202Y-93364449D01*
X147504975Y-93371846D01*
X147506186Y-93376940D01*
X147507924Y-93383166D01*
X147509088Y-93392065D01*
X147512703Y-93400281D01*
X147512705Y-93400288D01*
X147531092Y-93442078D01*
X147533743Y-93448590D01*
X147549777Y-93491359D01*
X147549779Y-93491363D01*
X147552929Y-93499765D01*
X147558310Y-93506945D01*
X147560863Y-93511608D01*
X147563675Y-93516126D01*
X147567289Y-93524339D01*
X147573063Y-93531208D01*
X147602457Y-93566176D01*
X147606831Y-93571686D01*
X147639596Y-93615404D01*
X147646776Y-93620785D01*
X147650527Y-93624536D01*
X147654499Y-93628087D01*
X147660276Y-93634960D01*
X147678595Y-93647154D01*
X147705759Y-93665236D01*
X147711505Y-93669297D01*
X147755235Y-93702071D01*
X147763643Y-93705223D01*
X147768316Y-93707781D01*
X147773106Y-93710066D01*
X147780574Y-93715037D01*
X147789141Y-93717714D01*
X147789146Y-93717716D01*
X147832731Y-93731334D01*
X147839382Y-93733617D01*
X147883155Y-93750026D01*
X147883159Y-93750027D01*
X147890551Y-93752798D01*
X147898403Y-93753651D01*
X147898937Y-93753778D01*
X147902877Y-93754311D01*
X147909942Y-93755455D01*
X147918510Y-93758132D01*
X147938276Y-93758494D01*
X147945446Y-93758949D01*
X147945446Y-93758947D01*
X147948850Y-93759131D01*
X147952243Y-93759500D01*
X147991991Y-93759500D01*
X147994300Y-93759521D01*
X148062998Y-93760780D01*
X148066779Y-93759749D01*
X148070796Y-93759500D01*
X149291966Y-93759500D01*
X149294274Y-93759521D01*
X149354020Y-93760616D01*
X149354023Y-93760616D01*
X149362998Y-93760780D01*
X149366780Y-93759749D01*
X149370801Y-93759499D01*
X150591938Y-93759499D01*
X150594247Y-93759520D01*
X150594592Y-93759526D01*
X150654024Y-93760616D01*
X150654027Y-93760616D01*
X150662998Y-93760780D01*
X150671658Y-93758419D01*
X150672142Y-93758359D01*
X150690817Y-93754822D01*
X150709449Y-93752798D01*
X150749793Y-93737674D01*
X150760861Y-93734100D01*
X150793763Y-93725130D01*
X150793765Y-93725129D01*
X150802422Y-93722769D01*
X150812257Y-93716730D01*
X150833960Y-93706122D01*
X150836356Y-93705224D01*
X150836360Y-93705222D01*
X150844765Y-93702071D01*
X150879244Y-93676230D01*
X150888864Y-93669693D01*
X150917920Y-93651854D01*
X150917928Y-93651847D01*
X150925572Y-93647154D01*
X150931593Y-93640502D01*
X150931597Y-93640499D01*
X150933321Y-93638594D01*
X150951164Y-93622329D01*
X150953228Y-93620782D01*
X150960404Y-93615404D01*
X150965782Y-93608228D01*
X150965785Y-93608225D01*
X150986242Y-93580929D01*
X150993655Y-93571937D01*
X151016524Y-93546673D01*
X151016526Y-93546671D01*
X151022551Y-93540014D01*
X151026468Y-93531930D01*
X151027583Y-93529629D01*
X151040149Y-93509002D01*
X151041689Y-93506948D01*
X151041693Y-93506941D01*
X151047071Y-93499765D01*
X151062193Y-93459428D01*
X151066781Y-93448723D01*
X151066846Y-93448590D01*
X151085560Y-93409962D01*
X151087476Y-93398576D01*
X151093744Y-93375266D01*
X151095025Y-93371848D01*
X151095026Y-93371843D01*
X151097798Y-93364449D01*
X151098652Y-93356593D01*
X151104131Y-93306152D01*
X151104500Y-93302757D01*
X151104500Y-93301493D01*
X151105834Y-93289455D01*
X151106052Y-93288163D01*
X151109536Y-93267453D01*
X151109688Y-93255000D01*
X151105773Y-93227662D01*
X151104500Y-93209801D01*
X151104499Y-91397919D01*
X151106245Y-91377014D01*
X151108729Y-91362247D01*
X151109536Y-91357453D01*
X151109688Y-91345000D01*
X151105772Y-91317655D01*
X151104802Y-91304053D01*
X151104683Y-91304059D01*
X151104499Y-91300660D01*
X151104499Y-91297244D01*
X151097798Y-91235551D01*
X151095026Y-91228155D01*
X151093198Y-91220468D01*
X151093501Y-91220396D01*
X151093240Y-91219376D01*
X151092993Y-91219448D01*
X151090473Y-91210832D01*
X151089201Y-91201948D01*
X151068182Y-91155718D01*
X151064905Y-91147806D01*
X151050222Y-91108639D01*
X151050221Y-91108636D01*
X151047071Y-91100235D01*
X151041688Y-91093053D01*
X151037645Y-91085668D01*
X151033105Y-91078569D01*
X151029388Y-91070395D01*
X150996239Y-91031924D01*
X150990866Y-91025242D01*
X150965785Y-90991776D01*
X150960404Y-90984596D01*
X150953223Y-90979214D01*
X150947279Y-90973270D01*
X150940917Y-90967720D01*
X150935056Y-90960918D01*
X150927522Y-90956035D01*
X150927519Y-90956032D01*
X150892443Y-90933297D01*
X150885410Y-90928391D01*
X150851951Y-90903315D01*
X150844765Y-90897929D01*
X150836357Y-90894777D01*
X150828975Y-90890735D01*
X150821323Y-90887199D01*
X150813790Y-90882317D01*
X150805170Y-90879739D01*
X150765123Y-90867761D01*
X150757001Y-90865028D01*
X150709449Y-90847202D01*
X150700373Y-90846216D01*
X150692834Y-90844692D01*
X150692816Y-90844810D01*
X150683941Y-90843483D01*
X150675337Y-90840910D01*
X150666358Y-90840855D01*
X150666357Y-90840855D01*
X150651957Y-90840767D01*
X150649546Y-90840694D01*
X150647757Y-90840500D01*
X150608605Y-90840500D01*
X150607836Y-90840498D01*
X150530827Y-90840028D01*
X150529492Y-90840410D01*
X150528164Y-90840500D01*
X149308683Y-90840500D01*
X149307915Y-90840498D01*
X149307809Y-90840497D01*
X149230827Y-90840028D01*
X149229491Y-90840410D01*
X149228161Y-90840501D01*
X148008763Y-90840501D01*
X148007994Y-90840499D01*
X148007830Y-90840498D01*
X147930827Y-90840028D01*
X147922198Y-90842494D01*
X147917358Y-90843157D01*
X147904349Y-90845703D01*
X147903038Y-90845846D01*
X147890551Y-90847202D01*
X147846593Y-90863681D01*
X147837002Y-90866843D01*
X147791879Y-90879739D01*
X147784288Y-90884529D01*
X147781198Y-90885911D01*
X147766589Y-90893163D01*
X147763636Y-90894780D01*
X147755235Y-90897929D01*
X147748056Y-90903309D01*
X147748053Y-90903311D01*
X147717680Y-90926075D01*
X147709358Y-90931806D01*
X147669661Y-90956853D01*
X147663718Y-90963582D01*
X147661151Y-90965767D01*
X147649148Y-90976843D01*
X147646776Y-90979215D01*
X147639596Y-90984596D01*
X147634215Y-90991776D01*
X147611448Y-91022154D01*
X147605063Y-91029997D01*
X147573999Y-91065170D01*
X147570183Y-91073297D01*
X147568335Y-91076111D01*
X147559922Y-91090112D01*
X147558313Y-91093051D01*
X147552929Y-91100235D01*
X147536452Y-91144188D01*
X147532531Y-91153494D01*
X147512583Y-91195982D01*
X147511202Y-91204853D01*
X147510221Y-91208061D01*
X147505224Y-91227105D01*
X147504974Y-91228157D01*
X147502202Y-91235551D01*
X147495500Y-91297243D01*
X147495500Y-91300662D01*
X147495424Y-91302065D01*
X147494109Y-91314631D01*
X147490350Y-91338773D01*
X147491514Y-91347675D01*
X147491514Y-91347678D01*
X147494436Y-91370019D01*
X147495500Y-91386357D01*
X147495501Y-93205940D01*
X147494001Y-93225324D01*
X147490350Y-93248773D01*
X140457500Y-93248773D01*
X140457500Y-88232333D01*
X141559000Y-88232333D01*
X141559001Y-90982466D01*
X141560853Y-90991776D01*
X141568839Y-91031927D01*
X141573766Y-91056701D01*
X141580661Y-91067020D01*
X141580662Y-91067022D01*
X141591859Y-91083779D01*
X141630016Y-91140884D01*
X141714199Y-91197134D01*
X141788433Y-91211900D01*
X143563213Y-91211900D01*
X145338566Y-91211899D01*
X145374318Y-91204788D01*
X145400626Y-91199556D01*
X145400628Y-91199555D01*
X145412801Y-91197134D01*
X145423121Y-91190239D01*
X145423122Y-91190238D01*
X145486668Y-91147777D01*
X145496984Y-91140884D01*
X145535141Y-91083779D01*
X145546339Y-91067020D01*
X145553234Y-91056701D01*
X145568000Y-90982467D01*
X145568000Y-90530500D01*
X145588002Y-90462379D01*
X145641658Y-90415886D01*
X145694000Y-90404500D01*
X146169053Y-90404500D01*
X146260950Y-90393786D01*
X146292482Y-90390110D01*
X146292484Y-90390110D01*
X146299754Y-90389262D01*
X146306631Y-90386766D01*
X146306634Y-90386765D01*
X146458255Y-90331729D01*
X146465134Y-90329232D01*
X146471251Y-90325222D01*
X146471254Y-90325220D01*
X146538701Y-90280999D01*
X146612268Y-90232766D01*
X146733264Y-90105040D01*
X146821632Y-89952904D01*
X146872630Y-89784520D01*
X146883524Y-89608920D01*
X146853729Y-89435523D01*
X146784844Y-89273632D01*
X146680563Y-89131929D01*
X146546480Y-89018018D01*
X146492288Y-88990346D01*
X146396305Y-88941334D01*
X146396300Y-88941332D01*
X146389788Y-88938007D01*
X146382682Y-88936268D01*
X146382679Y-88936267D01*
X146301290Y-88916352D01*
X146218892Y-88896189D01*
X146213290Y-88895841D01*
X146213287Y-88895841D01*
X146209725Y-88895620D01*
X146209716Y-88895620D01*
X146207786Y-88895500D01*
X145693999Y-88895500D01*
X145625878Y-88875498D01*
X145579385Y-88821842D01*
X145567999Y-88769500D01*
X145567999Y-88232334D01*
X145553234Y-88158099D01*
X145496984Y-88073916D01*
X145412801Y-88017666D01*
X145338567Y-88002900D01*
X143563787Y-88002900D01*
X141788434Y-88002901D01*
X141752682Y-88010012D01*
X141726374Y-88015244D01*
X141726372Y-88015245D01*
X141714199Y-88017666D01*
X141703879Y-88024561D01*
X141703878Y-88024562D01*
X141661109Y-88053140D01*
X141630016Y-88073916D01*
X141573766Y-88158099D01*
X141559000Y-88232333D01*
X140457500Y-88232333D01*
X140457500Y-88111600D01*
X140451570Y-88056441D01*
X140440184Y-88004099D01*
X140432834Y-87977309D01*
X140382731Y-87889322D01*
X140346373Y-87847362D01*
X140338078Y-87837789D01*
X140338073Y-87837784D01*
X140336238Y-87835666D01*
X140302949Y-87803544D01*
X140213230Y-87756613D01*
X140186213Y-87748680D01*
X140149432Y-87737880D01*
X140149428Y-87737879D01*
X140145109Y-87736611D01*
X140140661Y-87735971D01*
X140140654Y-87735970D01*
X140076448Y-87726739D01*
X140076441Y-87726739D01*
X140072000Y-87726100D01*
X134355000Y-87726100D01*
X134351654Y-87726460D01*
X134351649Y-87726460D01*
X134303205Y-87731668D01*
X134303199Y-87731669D01*
X134299841Y-87732030D01*
X134247499Y-87743416D01*
X134220709Y-87750766D01*
X134213858Y-87754667D01*
X134213856Y-87754668D01*
X134205406Y-87759480D01*
X134132722Y-87800869D01*
X134079066Y-87847362D01*
X134046944Y-87880651D01*
X134000013Y-87970370D01*
X133998270Y-87976306D01*
X133986126Y-88017666D01*
X133980011Y-88038491D01*
X133979371Y-88042939D01*
X133979370Y-88042946D01*
X133970139Y-88107152D01*
X133969500Y-88111600D01*
X133969500Y-93828600D01*
X132804591Y-93828600D01*
X132845868Y-93766825D01*
X132855184Y-93744334D01*
X132866293Y-93688485D01*
X132867500Y-93676230D01*
X132867500Y-92453015D01*
X132863025Y-92437776D01*
X132861635Y-92436571D01*
X132853952Y-92434900D01*
X131009115Y-92434900D01*
X130993876Y-92439375D01*
X130992671Y-92440765D01*
X130991000Y-92448448D01*
X130991000Y-93893284D01*
X130736000Y-93893284D01*
X130736000Y-92453015D01*
X130731525Y-92437776D01*
X130730135Y-92436571D01*
X130722452Y-92434900D01*
X128877616Y-92434900D01*
X128862377Y-92439375D01*
X128861172Y-92440765D01*
X128859501Y-92448448D01*
X128859501Y-93676228D01*
X122576100Y-93676228D01*
X122576100Y-92161785D01*
X128859500Y-92161785D01*
X128863975Y-92177024D01*
X128865365Y-92178229D01*
X128873048Y-92179900D01*
X130717885Y-92179900D01*
X130733124Y-92175425D01*
X130734329Y-92174035D01*
X130736000Y-92166352D01*
X130736000Y-92161785D01*
X130991000Y-92161785D01*
X130995475Y-92177024D01*
X130996865Y-92178229D01*
X131004548Y-92179900D01*
X132849384Y-92179900D01*
X132864623Y-92175425D01*
X132865828Y-92174035D01*
X132867499Y-92166352D01*
X132867499Y-90938572D01*
X132866291Y-90926312D01*
X132855185Y-90870469D01*
X132845867Y-90847973D01*
X132803517Y-90784592D01*
X132786308Y-90767383D01*
X132722925Y-90725032D01*
X132700434Y-90715716D01*
X132644585Y-90704607D01*
X132632330Y-90703400D01*
X131009115Y-90703400D01*
X130993876Y-90707875D01*
X130992671Y-90709265D01*
X130991000Y-90716948D01*
X130991000Y-92161785D01*
X130736000Y-92161785D01*
X130736000Y-90721516D01*
X130731525Y-90706277D01*
X130730135Y-90705072D01*
X130722452Y-90703401D01*
X129094672Y-90703401D01*
X129082412Y-90704609D01*
X129026569Y-90715715D01*
X129004073Y-90725033D01*
X128940692Y-90767383D01*
X128923483Y-90784592D01*
X128881132Y-90847975D01*
X128871816Y-90870466D01*
X128860707Y-90926315D01*
X128859500Y-90938570D01*
X128859500Y-92161785D01*
X122576100Y-92161785D01*
X122576100Y-89935271D01*
X122596102Y-89867150D01*
X122613005Y-89846176D01*
X127417776Y-85041405D01*
X127480088Y-85007379D01*
X127506871Y-85004500D01*
X139842535Y-85004500D01*
X139902657Y-85019769D01*
X139982293Y-85063008D01*
X140135522Y-85103207D01*
X140219477Y-85104526D01*
X140286319Y-85105576D01*
X140286322Y-85105576D01*
X140293916Y-85105695D01*
X140448332Y-85070329D01*
X140518742Y-85034917D01*
X140583072Y-85002563D01*
X140583075Y-85002561D01*
X140589855Y-84999151D01*
X140595626Y-84994222D01*
X140595629Y-84994220D01*
X140704536Y-84901204D01*
X140704536Y-84901203D01*
X140710314Y-84896269D01*
X140802755Y-84767624D01*
X140861842Y-84620641D01*
X140884162Y-84463807D01*
X140884307Y-84450000D01*
X140865276Y-84292733D01*
X140809280Y-84144546D01*
X140719553Y-84013992D01*
X140704581Y-84000652D01*
X140667741Y-83967830D01*
X140601275Y-83908611D01*
X140572039Y-83893131D01*
X140467988Y-83838039D01*
X140467989Y-83838039D01*
X140461274Y-83834484D01*
X140307633Y-83795892D01*
X140300034Y-83795852D01*
X140300033Y-83795852D01*
X140234181Y-83795507D01*
X140149221Y-83795062D01*
X140141841Y-83796834D01*
X140141839Y-83796834D01*
X140002563Y-83830271D01*
X140002560Y-83830272D01*
X139995184Y-83832043D01*
X139988439Y-83835524D01*
X139988440Y-83835524D01*
X139899429Y-83881466D01*
X139841639Y-83895500D01*
X127240065Y-83895500D01*
X127234789Y-83895389D01*
X127231486Y-83895251D01*
X127172326Y-83892771D01*
X127163964Y-83894732D01*
X127163958Y-83894733D01*
X127129613Y-83902789D01*
X127117960Y-83904950D01*
X127074482Y-83910905D01*
X127066595Y-83914318D01*
X127066592Y-83914319D01*
X127060505Y-83916953D01*
X127039242Y-83923986D01*
X127024417Y-83927463D01*
X126985963Y-83948603D01*
X126975317Y-83953818D01*
X126942937Y-83967830D01*
X126942933Y-83967832D01*
X126935054Y-83971242D01*
X126928381Y-83976646D01*
X126928379Y-83976647D01*
X126923225Y-83980821D01*
X126904637Y-83993312D01*
X126891285Y-84000652D01*
X126886281Y-84004972D01*
X126884860Y-84006198D01*
X126884853Y-84006204D01*
X126883109Y-84007710D01*
X126858366Y-84032453D01*
X126848565Y-84041279D01*
X126823662Y-84061444D01*
X126823659Y-84061447D01*
X126816987Y-84066850D01*
X126805962Y-84082364D01*
X126792355Y-84098464D01*
X121886887Y-89003932D01*
X121824575Y-89037958D01*
X121753760Y-89032893D01*
X121696924Y-88990346D01*
X121672113Y-88923826D01*
X121673625Y-88893424D01*
X121728394Y-88575839D01*
X121729901Y-88568433D01*
X121837234Y-88111600D01*
X121873293Y-87958126D01*
X121875240Y-87950832D01*
X121882578Y-87926311D01*
X122054956Y-87350253D01*
X122057334Y-87343091D01*
X122272749Y-86754329D01*
X122275558Y-86747313D01*
X122525866Y-86172565D01*
X122529090Y-86165729D01*
X122813417Y-85607006D01*
X122817045Y-85600376D01*
X123046357Y-85209649D01*
X123134372Y-85059681D01*
X123138386Y-85053290D01*
X123433564Y-84613115D01*
X123487530Y-84532639D01*
X123491925Y-84526491D01*
X123871678Y-84027681D01*
X123876435Y-84021807D01*
X124285408Y-83546666D01*
X124290508Y-83541089D01*
X124400235Y-83428085D01*
X124727232Y-83091323D01*
X124732632Y-83086085D01*
X125195552Y-82663299D01*
X125201281Y-82658374D01*
X125688691Y-82264124D01*
X125694707Y-82259549D01*
X126204880Y-81895228D01*
X126211159Y-81891022D01*
X126742280Y-81557931D01*
X126748801Y-81554110D01*
X127298896Y-81253483D01*
X127305633Y-81250059D01*
X127872789Y-80982942D01*
X127879720Y-80979928D01*
X128461882Y-80747291D01*
X128468956Y-80744708D01*
X128772466Y-80644069D01*
X129064022Y-80547393D01*
X129071263Y-80545231D01*
X129677052Y-80383958D01*
X129684411Y-80382233D01*
X130298804Y-80257565D01*
X130306252Y-80256285D01*
X130927010Y-80168678D01*
X130934522Y-80167847D01*
X131167848Y-80149091D01*
X131559428Y-80117614D01*
X131566946Y-80117237D01*
X131865228Y-80111205D01*
X132161393Y-80105216D01*
X132179189Y-80106874D01*
X132185315Y-80106934D01*
X132197463Y-80109474D01*
X132212568Y-80106623D01*
X132235711Y-80104436D01*
X142567082Y-80085977D01*
X142589310Y-80087913D01*
G37*
G04 #@! TD.AperFunction*
M02*
