(module AS312 (layer F.Cu) (tedit 5EF77B41)
  (fp_text reference REF** (at 4.572 -6.096) (layer F.SilkS)
    (effects (font (size 1 1) (thickness 0.15)))
  )
  (fp_text value AS312 (at -3.048 -6.096) (layer F.Fab)
    (effects (font (size 1 1) (thickness 0.15)))
  )
  (fp_circle (center 0 0) (end 4.572 0) (layer F.SilkS) (width 0.12))
  (fp_line (start -3.81 2.54) (end -5.08 3.81) (layer F.SilkS) (width 0.12))
  (fp_line (start -5.08 3.81) (end -3.81 5.08) (layer F.SilkS) (width 0.12))
  (fp_line (start -3.81 5.08) (end -2.54 3.81) (layer F.SilkS) (width 0.12))
  (pad 3 thru_hole circle (at 0 -2.54) (size 1.524 1.524) (drill 0.762) (layers *.Cu *.Mask))
  (pad 2 thru_hole circle (at 2.54 0) (size 1.524 1.524) (drill 0.762) (layers *.Cu *.Mask))
  (pad 1 thru_hole circle (at 0 2.54) (size 1.524 1.524) (drill 0.762) (layers *.Cu *.Mask))
)
