EESchema Schematic File Version 4
EELAYER 30 0
EELAYER END
$Descr A4 11693 8268
encoding utf-8
Sheet 1 1
Title ""
Date ""
Rev ""
Comp ""
Comment1 ""
Comment2 ""
Comment3 ""
Comment4 ""
$EndDescr
$Comp
L my_parts:CN5711 U2
U 1 1 5EEB9B1D
P 3300 4950
F 0 "U2" H 3250 5325 50  0000 C CNN
F 1 "CN5711" H 3250 5234 50  0000 C CNN
F 2 "Package_SO:HSOP-8-1EP_3.9x4.9mm_P1.27mm_EP2.41x3.1mm_ThermalVias" H 3300 4950 50  0001 C CNN
F 3 "" H 3300 4950 50  0001 C CNN
	1    3300 4950
	1    0    0    -1  
$EndComp
$Comp
L Device:R R1
U 1 1 5EEBCBB3
P 2650 4800
F 0 "R1" V 2443 4800 50  0000 C CNN
F 1 "5k2" V 2534 4800 50  0000 C CNN
F 2 "Resistor_SMD:R_0805_2012Metric" V 2580 4800 50  0001 C CNN
F 3 "~" H 2650 4800 50  0001 C CNN
	1    2650 4800
	0    1    1    0   
$EndComp
$Comp
L power:+5V #PWR06
U 1 1 5EEBDCBF
P 2700 5000
F 0 "#PWR06" H 2700 4850 50  0001 C CNN
F 1 "+5V" V 2715 5128 50  0000 L CNN
F 2 "" H 2700 5000 50  0001 C CNN
F 3 "" H 2700 5000 50  0001 C CNN
	1    2700 5000
	0    -1   -1   0   
$EndComp
$Comp
L power:+3.3V #PWR012
U 1 1 5EEBFF7D
P 7950 4250
F 0 "#PWR012" H 7950 4100 50  0001 C CNN
F 1 "+3.3V" H 7965 4423 50  0000 C CNN
F 2 "" H 7950 4250 50  0001 C CNN
F 3 "" H 7950 4250 50  0001 C CNN
	1    7950 4250
	1    0    0    -1  
$EndComp
$Comp
L power:GND #PWR013
U 1 1 5EEC0F1E
P 7950 4650
F 0 "#PWR013" H 7950 4400 50  0001 C CNN
F 1 "GND" H 7955 4477 50  0000 C CNN
F 2 "" H 7950 4650 50  0001 C CNN
F 3 "" H 7950 4650 50  0001 C CNN
	1    7950 4650
	1    0    0    -1  
$EndComp
Wire Wire Line
	7950 4350 8200 4350
Wire Wire Line
	7950 4550 8200 4550
Wire Wire Line
	7950 4350 7950 4250
$Comp
L Device:C C6
U 1 1 5EEC42F0
P 6700 4450
F 0 "C6" H 6750 4550 50  0000 L CNN
F 1 "100nF" H 6700 4350 50  0000 L CNN
F 2 "Capacitor_SMD:C_0805_2012Metric" H 6738 4300 50  0001 C CNN
F 3 "~" H 6700 4450 50  0001 C CNN
	1    6700 4450
	1    0    0    -1  
$EndComp
$Comp
L Device:C C5
U 1 1 5EEC52C9
P 6400 4450
F 0 "C5" H 6450 4550 50  0000 L CNN
F 1 "10uF" H 6400 4350 50  0000 L CNN
F 2 "Capacitor_SMD:C_0805_2012Metric" H 6438 4300 50  0001 C CNN
F 3 "~" H 6400 4450 50  0001 C CNN
	1    6400 4450
	1    0    0    -1  
$EndComp
Wire Wire Line
	6400 4300 6400 4250
Wire Wire Line
	6400 4250 6700 4250
Wire Wire Line
	6700 4300 6700 4250
Connection ~ 6700 4250
Wire Wire Line
	6400 4600 6400 4650
Wire Wire Line
	6400 4650 6700 4650
Wire Wire Line
	6700 4600 6700 4650
Connection ~ 6700 4650
Wire Wire Line
	3900 5100 3550 5100
Wire Wire Line
	3900 5000 3900 5100
Connection ~ 3900 5100
Wire Wire Line
	2700 5000 2850 5000
Wire Wire Line
	2850 5000 2850 5100
Wire Wire Line
	2850 5100 2950 5100
Connection ~ 2850 5000
Wire Wire Line
	2850 5000 2950 5000
Wire Wire Line
	2800 4800 2950 4800
Wire Wire Line
	2150 4900 2150 4800
Wire Wire Line
	2150 4800 2400 4800
Wire Wire Line
	2950 4900 2400 4900
Wire Wire Line
	2400 4900 2400 4800
Connection ~ 2400 4800
Wire Wire Line
	2400 4800 2500 4800
Text Label 4500 4350 0    50   ~ 0
PIR_SIG
$Comp
L MCU_Microchip_ATtiny:ATtiny13A-SSU U3
U 1 1 5EECCBDA
P 4650 2250
F 0 "U3" H 5000 1700 50  0000 R CNN
F 1 "ATtiny13A-SSU" H 5300 2850 50  0000 R CNN
F 2 "Package_SO:SOIC-8_3.9x4.9mm_P1.27mm" H 4650 2250 50  0001 C CIN
F 3 "http://ww1.microchip.com/downloads/en/DeviceDoc/doc8126.pdf" H 4650 2250 50  0001 C CNN
	1    4650 2250
	1    0    0    -1  
$EndComp
$Comp
L Device:C C4
U 1 1 5EED083C
P 3850 2250
F 0 "C4" H 3900 2350 50  0000 L CNN
F 1 "10uF" H 3850 2150 50  0000 L CNN
F 2 "Capacitor_SMD:C_0805_2012Metric" H 3888 2100 50  0001 C CNN
F 3 "~" H 3850 2250 50  0001 C CNN
	1    3850 2250
	1    0    0    -1  
$EndComp
Wire Wire Line
	3850 2100 3850 1500
Wire Wire Line
	3850 1500 4650 1500
Wire Wire Line
	4650 1500 4650 1650
Wire Wire Line
	3850 2400 3850 2950
Wire Wire Line
	3850 2950 4650 2950
Wire Wire Line
	4650 2950 4650 2850
Wire Wire Line
	3550 4800 4200 4800
Text Label 5450 2050 0    50   ~ 0
PIR_SIG
Wire Wire Line
	5250 2050 5450 2050
Text Label 5450 1950 0    50   ~ 0
LED_ON
Wire Wire Line
	5250 1950 5450 1950
Text Label 3550 4350 2    50   ~ 0
LED_ON
$Comp
L Switch:SW_Push SW1
U 1 1 5EEE4607
P 7600 1650
F 0 "SW1" H 7600 1935 50  0000 C CNN
F 1 "SW_Push" H 7600 1844 50  0000 C CNN
F 2 "Button_Switch_SMD:SW_SPST_FSMSM" H 7600 1850 50  0001 C CNN
F 3 "~" H 7600 1850 50  0001 C CNN
	1    7600 1650
	1    0    0    -1  
$EndComp
$Comp
L Device:LED D3
U 1 1 5EEE5A55
P 8150 2650
F 0 "D3" H 8143 2395 50  0000 C CNN
F 1 "LED" H 8143 2486 50  0000 C CNN
F 2 "LED_SMD:LED_0805_2012Metric" H 8150 2650 50  0001 C CNN
F 3 "~" H 8150 2650 50  0001 C CNN
	1    8150 2650
	-1   0    0    1   
$EndComp
Text Label 5450 2150 0    50   ~ 0
MODE_SWITCH
Wire Wire Line
	5250 2150 5450 2150
Wire Wire Line
	5250 2350 5450 2350
$Comp
L Device:R R3
U 1 1 5EEF01FD
P 7650 2650
F 0 "R3" V 7443 2650 50  0000 C CNN
F 1 "1k" V 7534 2650 50  0000 C CNN
F 2 "Resistor_SMD:R_0805_2012Metric" V 7580 2650 50  0001 C CNN
F 3 "~" H 7650 2650 50  0001 C CNN
	1    7650 2650
	0    1    1    0   
$EndComp
$Comp
L Device:R R5
U 1 1 5EEF084F
P 8150 1650
F 0 "R5" V 7943 1650 50  0000 C CNN
F 1 "1k" V 8034 1650 50  0000 C CNN
F 2 "Resistor_SMD:R_0805_2012Metric" V 8080 1650 50  0001 C CNN
F 3 "~" H 8150 1650 50  0001 C CNN
	1    8150 1650
	0    1    1    0   
$EndComp
Wire Wire Line
	7800 1650 8000 1650
Wire Wire Line
	8300 1650 8500 1650
Wire Wire Line
	7800 2650 8000 2650
$Comp
L power:GND #PWR014
U 1 1 5EEFA2C3
P 8500 3550
F 0 "#PWR014" H 8500 3300 50  0001 C CNN
F 1 "GND" H 8505 3377 50  0000 C CNN
F 2 "" H 8500 3550 50  0001 C CNN
F 3 "" H 8500 3550 50  0001 C CNN
	1    8500 3550
	1    0    0    -1  
$EndComp
Text Label 7250 1650 2    50   ~ 0
MODE_SWITCH
Wire Wire Line
	7250 1650 7400 1650
$Comp
L Jumper:SolderJumper_3_Open JP1
U 1 1 5EECBC67
P 4200 4350
F 0 "JP1" H 4200 4463 50  0000 C CNN
F 1 "Jumper" H 4200 4464 50  0001 C CNN
F 2 "Jumper:SolderJumper-3_P1.3mm_Open_RoundedPad1.0x1.5mm" H 4200 4350 50  0001 C CNN
F 3 "~" H 4200 4350 50  0001 C CNN
	1    4200 4350
	1    0    0    -1  
$EndComp
Wire Wire Line
	4400 4350 4500 4350
$Comp
L power:+5V #PWR01
U 1 1 5EED98B8
P 1500 3150
F 0 "#PWR01" H 1500 3000 50  0001 C CNN
F 1 "+5V" H 1450 3350 50  0000 L CNN
F 2 "" H 1500 3150 50  0001 C CNN
F 3 "" H 1500 3150 50  0001 C CNN
	1    1500 3150
	1    0    0    -1  
$EndComp
NoConn ~ 5250 2450
$Comp
L power:+3.3V #PWR08
U 1 1 5EF11F2A
P 3850 1500
F 0 "#PWR08" H 3850 1350 50  0001 C CNN
F 1 "+3.3V" H 3850 1700 50  0000 C CNN
F 2 "" H 3850 1500 50  0001 C CNN
F 3 "" H 3850 1500 50  0001 C CNN
	1    3850 1500
	1    0    0    -1  
$EndComp
Connection ~ 3850 1500
$Comp
L power:GND #PWR09
U 1 1 5EF12CFF
P 3850 2950
F 0 "#PWR09" H 3850 2700 50  0001 C CNN
F 1 "GND" H 3855 2777 50  0000 C CNN
F 2 "" H 3850 2950 50  0001 C CNN
F 3 "" H 3850 2950 50  0001 C CNN
	1    3850 2950
	1    0    0    -1  
$EndComp
Connection ~ 3850 2950
$Comp
L power:GND #PWR03
U 1 1 5EF146E2
P 2150 4900
F 0 "#PWR03" H 2150 4650 50  0001 C CNN
F 1 "GND" H 2155 4727 50  0000 C CNN
F 2 "" H 2150 4900 50  0001 C CNN
F 3 "" H 2150 4900 50  0001 C CNN
	1    2150 4900
	1    0    0    -1  
$EndComp
$Comp
L Mechanical:MountingHole H1
U 1 1 5EF2D435
P 1400 6850
F 0 "H1" H 1500 6896 50  0000 L CNN
F 1 "MountingHole" H 1500 6805 50  0000 L CNN
F 2 "MountingHole:MountingHole_2.5mm" H 1400 6850 50  0001 C CNN
F 3 "~" H 1400 6850 50  0001 C CNN
	1    1400 6850
	1    0    0    -1  
$EndComp
$Comp
L Mechanical:MountingHole H2
U 1 1 5EF2EDA2
P 1400 7050
F 0 "H2" H 1500 7096 50  0000 L CNN
F 1 "MountingHole" H 1500 7005 50  0000 L CNN
F 2 "MountingHole:MountingHole_2.5mm" H 1400 7050 50  0001 C CNN
F 3 "~" H 1400 7050 50  0001 C CNN
	1    1400 7050
	1    0    0    -1  
$EndComp
$Comp
L Regulator_Linear:LM1117-3.3 U1
U 1 1 5EF3075C
P 2100 3250
F 0 "U1" H 2100 3492 50  0000 C CNN
F 1 "LM1117-3.3" H 2100 3401 50  0000 C CNN
F 2 "Package_TO_SOT_SMD:SOT-223-3_TabPin2" H 2100 3250 50  0001 C CNN
F 3 "http://www.ti.com/lit/ds/symlink/lm1117.pdf" H 2100 3250 50  0001 C CNN
	1    2100 3250
	1    0    0    -1  
$EndComp
$Comp
L power:GND #PWR02
U 1 1 5EF3F14F
P 2100 3650
F 0 "#PWR02" H 2100 3400 50  0001 C CNN
F 1 "GND" H 2105 3477 50  0000 C CNN
F 2 "" H 2100 3650 50  0001 C CNN
F 3 "" H 2100 3650 50  0001 C CNN
	1    2100 3650
	1    0    0    -1  
$EndComp
$Comp
L power:+3.3V #PWR07
U 1 1 5EF3FE8A
P 2750 3150
F 0 "#PWR07" H 2750 3000 50  0001 C CNN
F 1 "+3.3V" H 2750 3350 50  0000 C CNN
F 2 "" H 2750 3150 50  0001 C CNN
F 3 "" H 2750 3150 50  0001 C CNN
	1    2750 3150
	1    0    0    -1  
$EndComp
Wire Wire Line
	1500 3150 1500 3250
Wire Wire Line
	1500 3250 1800 3250
Wire Wire Line
	2100 3550 2100 3650
Wire Wire Line
	2400 3250 2450 3250
Wire Wire Line
	2750 3250 2750 3150
$Comp
L Device:C C1
U 1 1 5EF45319
P 1500 3500
F 0 "C1" H 1550 3600 50  0000 L CNN
F 1 "10uF" H 1500 3400 50  0000 L CNN
F 2 "Capacitor_SMD:C_0805_2012Metric" H 1538 3350 50  0001 C CNN
F 3 "~" H 1500 3500 50  0001 C CNN
	1    1500 3500
	1    0    0    -1  
$EndComp
$Comp
L Device:C C3
U 1 1 5EF460E3
P 2750 3500
F 0 "C3" H 2800 3600 50  0000 L CNN
F 1 "10uF" H 2750 3400 50  0000 L CNN
F 2 "Capacitor_SMD:C_0805_2012Metric" H 2788 3350 50  0001 C CNN
F 3 "~" H 2750 3500 50  0001 C CNN
	1    2750 3500
	1    0    0    -1  
$EndComp
$Comp
L Device:C C2
U 1 1 5EF466E0
P 2450 3500
F 0 "C2" H 2500 3600 50  0000 L CNN
F 1 "100nF" H 2450 3400 50  0000 L CNN
F 2 "Capacitor_SMD:C_0805_2012Metric" H 2488 3350 50  0001 C CNN
F 3 "~" H 2450 3500 50  0001 C CNN
	1    2450 3500
	1    0    0    -1  
$EndComp
Wire Wire Line
	2100 3650 2450 3650
Connection ~ 2100 3650
Wire Wire Line
	2450 3650 2750 3650
Connection ~ 2450 3650
Wire Wire Line
	2450 3350 2450 3250
Connection ~ 2450 3250
Wire Wire Line
	2450 3250 2750 3250
Wire Wire Line
	2750 3350 2750 3250
Connection ~ 2750 3250
Wire Wire Line
	1500 3350 1500 3250
Connection ~ 1500 3250
Wire Wire Line
	1500 3650 2100 3650
Wire Wire Line
	7250 2650 7500 2650
Wire Wire Line
	8300 2650 8500 2650
Text Label 7250 2650 2    50   ~ 0
STATUS_LED
Text Label 5450 2350 0    50   ~ 0
LIGHT_SENSOR
$Comp
L power:+3.3V #PWR011
U 1 1 5EEDD63E
P 7050 3000
F 0 "#PWR011" H 7050 2850 50  0001 C CNN
F 1 "+3.3V" H 7050 3200 50  0000 C CNN
F 2 "" H 7050 3000 50  0001 C CNN
F 3 "" H 7050 3000 50  0001 C CNN
	1    7050 3000
	1    0    0    -1  
$EndComp
$Comp
L Device:R_PHOTO R2
U 1 1 5EEDE505
P 7450 3250
F 0 "R2" V 7125 3250 50  0000 C CNN
F 1 "R_PHOTO" V 7216 3250 50  0000 C CNN
F 2 "OptoDevice:R_LDR_4.9x4.2mm_P2.54mm_Vertical" V 7500 3000 50  0001 L CNN
F 3 "~" H 7450 3200 50  0001 C CNN
	1    7450 3250
	0    1    1    0   
$EndComp
$Comp
L Device:R R4
U 1 1 5EEDF2CD
P 7950 3250
F 0 "R4" V 7743 3250 50  0000 C CNN
F 1 "10k" V 7834 3250 50  0000 C CNN
F 2 "Resistor_SMD:R_0805_2012Metric" V 7880 3250 50  0001 C CNN
F 3 "~" H 7950 3250 50  0001 C CNN
	1    7950 3250
	0    1    1    0   
$EndComp
Wire Wire Line
	7050 3000 7050 3250
Wire Wire Line
	7050 3250 7300 3250
Wire Wire Line
	7600 3250 7700 3250
Wire Wire Line
	8100 3250 8500 3250
Text Label 7800 3500 0    50   ~ 0
LIGHT_SENSOR
Wire Wire Line
	7800 3500 7700 3500
Wire Wire Line
	7700 3500 7700 3250
Connection ~ 7700 3250
Wire Wire Line
	7700 3250 7800 3250
Wire Wire Line
	4100 5550 4150 5550
$Comp
L Device:LED_PAD D1
U 1 1 5EEB635A
P 3900 5550
F 0 "D1" V 3950 5850 50  0000 R CNN
F 1 "LED" V 3850 5900 50  0000 R CNN
F 2 "LED_SMD:LED_1W_3W_R8" H 3900 5550 50  0001 C CNN
F 3 "~" H 3900 5550 50  0001 C CNN
	1    3900 5550
	0    -1   -1   0   
$EndComp
Wire Wire Line
	3900 5100 3900 5400
NoConn ~ 4150 5550
Connection ~ 8500 2650
Connection ~ 8500 3250
Wire Wire Line
	8500 3250 8500 3550
Wire Wire Line
	8500 1650 8500 2150
Wire Wire Line
	8500 2650 8500 3250
$Comp
L Device:LED D5
U 1 1 5EEE36DB
P 8150 2150
F 0 "D5" H 8143 1895 50  0000 C CNN
F 1 "LED" H 8143 1986 50  0000 C CNN
F 2 "LED_SMD:LED_0805_2012Metric" H 8150 2150 50  0001 C CNN
F 3 "~" H 8150 2150 50  0001 C CNN
	1    8150 2150
	-1   0    0    1   
$EndComp
$Comp
L Device:R R6
U 1 1 5EEE36E1
P 7650 2150
F 0 "R6" V 7443 2150 50  0000 C CNN
F 1 "1k" V 7534 2150 50  0000 C CNN
F 2 "Resistor_SMD:R_0805_2012Metric" V 7580 2150 50  0001 C CNN
F 3 "~" H 7650 2150 50  0001 C CNN
	1    7650 2150
	0    1    1    0   
$EndComp
Wire Wire Line
	7800 2150 8000 2150
Wire Wire Line
	7250 2150 7500 2150
Wire Wire Line
	8300 2150 8500 2150
Text Label 6750 2150 2    50   ~ 0
LED_ON
Connection ~ 8500 2150
Wire Wire Line
	8500 2150 8500 2650
$Comp
L Device:LED D6
U 1 1 5EEEE027
P 2450 2250
F 0 "D6" H 2443 1995 50  0000 C CNN
F 1 "LED" H 2443 2086 50  0000 C CNN
F 2 "LED_SMD:LED_0805_2012Metric" H 2450 2250 50  0001 C CNN
F 3 "~" H 2450 2250 50  0001 C CNN
	1    2450 2250
	-1   0    0    1   
$EndComp
$Comp
L Device:R R7
U 1 1 5EEEE02D
P 1950 2250
F 0 "R7" V 1743 2250 50  0000 C CNN
F 1 "1k" V 1834 2250 50  0000 C CNN
F 2 "Resistor_SMD:R_0805_2012Metric" V 1880 2250 50  0001 C CNN
F 3 "~" H 1950 2250 50  0001 C CNN
	1    1950 2250
	0    1    1    0   
$EndComp
Wire Wire Line
	2100 2250 2300 2250
Wire Wire Line
	2600 2250 2800 2250
$Comp
L power:GND #PWR016
U 1 1 5EEF9C6F
P 2800 2350
F 0 "#PWR016" H 2800 2100 50  0001 C CNN
F 1 "GND" H 2805 2177 50  0000 C CNN
F 2 "" H 2800 2350 50  0001 C CNN
F 3 "" H 2800 2350 50  0001 C CNN
	1    2800 2350
	1    0    0    -1  
$EndComp
Wire Wire Line
	2800 2250 2800 2350
$Comp
L my_parts:AS312 S1
U 1 1 5EEB2FDB
P 8200 4450
F 0 "S1" H 8678 4501 50  0000 L CNN
F 1 "AS312" H 8678 4410 50  0000 L CNN
F 2 "raspi-cam-light:AS312" H 8200 4450 50  0001 C CNN
F 3 "" H 8200 4450 50  0001 C CNN
	1    8200 4450
	1    0    0    -1  
$EndComp
Wire Wire Line
	1550 2250 1800 2250
$Comp
L Jumper:SolderJumper_2_Open JP2
U 1 1 5EF7FDE5
P 1400 2250
F 0 "JP2" H 1400 2363 50  0000 C CNN
F 1 "SolderJumper_2_Open" H 1400 2364 50  0001 C CNN
F 2 "Jumper:SolderJumper-2_P1.3mm_Open_Pad1.0x1.5mm" H 1400 2250 50  0001 C CNN
F 3 "~" H 1400 2250 50  0001 C CNN
	1    1400 2250
	1    0    0    -1  
$EndComp
Wire Wire Line
	950  2250 1250 2250
$Comp
L power:+3.3V #PWR015
U 1 1 5EEF9728
P 950 2150
F 0 "#PWR015" H 950 2000 50  0001 C CNN
F 1 "+3.3V" H 950 2350 50  0000 C CNN
F 2 "" H 950 2150 50  0001 C CNN
F 3 "" H 950 2150 50  0001 C CNN
	1    950  2150
	1    0    0    -1  
$EndComp
Wire Wire Line
	950  2150 950  2250
$Comp
L Jumper:SolderJumper_2_Open JP3
U 1 1 5EF9430A
P 7100 2150
F 0 "JP3" H 7100 2263 50  0000 C CNN
F 1 "SolderJumper_2_Open" H 7100 2264 50  0001 C CNN
F 2 "Jumper:SolderJumper-2_P1.3mm_Open_Pad1.0x1.5mm" H 7100 2150 50  0001 C CNN
F 3 "~" H 7100 2150 50  0001 C CNN
	1    7100 2150
	1    0    0    -1  
$EndComp
Wire Wire Line
	6750 2150 6950 2150
Text Label 7400 4450 2    50   ~ 0
PIR_SIG
$Comp
L Device:R R9
U 1 1 5EFAE9D9
P 7700 4450
F 0 "R9" V 7600 4450 50  0000 C CNN
F 1 "1k" V 7800 4450 50  0000 C CNN
F 2 "Resistor_SMD:R_0805_2012Metric" V 7630 4450 50  0001 C CNN
F 3 "~" H 7700 4450 50  0001 C CNN
	1    7700 4450
	0    1    1    0   
$EndComp
Wire Wire Line
	7400 4450 7550 4450
Wire Wire Line
	7850 4450 8200 4450
Wire Wire Line
	6700 4250 7950 4250
Connection ~ 7950 4250
Wire Wire Line
	6700 4650 7950 4650
Connection ~ 7950 4650
$Comp
L Device:R R8
U 1 1 5EFBA811
P 3750 4350
F 0 "R8" V 3650 4350 50  0000 C CNN
F 1 "1k" V 3850 4350 50  0000 C CNN
F 2 "Resistor_SMD:R_0805_2012Metric" V 3680 4350 50  0001 C CNN
F 3 "~" H 3750 4350 50  0001 C CNN
	1    3750 4350
	0    1    1    0   
$EndComp
Wire Wire Line
	3900 4350 4000 4350
Wire Wire Line
	3600 4350 3550 4350
Wire Wire Line
	7950 4600 7950 4650
Wire Wire Line
	7950 4550 7950 4650
Wire Wire Line
	4200 4500 4200 4800
NoConn ~ 4800 5550
$Comp
L Device:LED_PAD D2
U 1 1 5EEB8C28
P 4550 5550
F 0 "D2" V 4600 5800 50  0000 R CNN
F 1 "LED" V 4500 5800 50  0000 R CNN
F 2 "LED_SMD:LED_1W_3W_R8" H 4550 5550 50  0001 C CNN
F 3 "~" H 4550 5550 50  0001 C CNN
	1    4550 5550
	0    -1   -1   0   
$EndComp
Wire Wire Line
	4800 5550 4750 5550
Wire Wire Line
	4550 5100 4550 5400
$Comp
L power:GND #PWR010
U 1 1 5EEC847C
P 3650 6050
F 0 "#PWR010" H 3650 5800 50  0001 C CNN
F 1 "GND" H 3655 5877 50  0000 C CNN
F 2 "" H 3650 6050 50  0001 C CNN
F 3 "" H 3650 6050 50  0001 C CNN
	1    3650 6050
	1    0    0    -1  
$EndComp
Wire Wire Line
	3650 5850 3650 6000
$Comp
L Jumper:SolderJumper_3_Open JP4
U 1 1 5EFB3DAD
P 3900 5850
F 0 "JP4" H 3900 5963 50  0000 C CNN
F 1 "Jumper" H 3900 5964 50  0001 C CNN
F 2 "Jumper:SolderJumper-3_P1.3mm_Open_RoundedPad1.0x1.5mm" H 3900 5850 50  0001 C CNN
F 3 "~" H 3900 5850 50  0001 C CNN
	1    3900 5850
	-1   0    0    1   
$EndComp
Wire Wire Line
	3650 5850 3700 5850
Wire Wire Line
	4100 5850 4250 5850
Wire Wire Line
	4250 5850 4250 5100
Wire Wire Line
	4250 5100 4550 5100
Connection ~ 4250 5100
$Comp
L Jumper:SolderJumper_2_Open JP5
U 1 1 5EFBEE23
P 4050 5100
F 0 "JP5" H 4050 5213 50  0000 C CNN
F 1 "SolderJumper_2_Open" H 4050 5214 50  0001 C CNN
F 2 "Jumper:SolderJumper-2_P1.3mm_Open_Pad1.0x1.5mm" H 4050 5100 50  0001 C CNN
F 3 "~" H 4050 5100 50  0001 C CNN
	1    4050 5100
	1    0    0    -1  
$EndComp
Wire Wire Line
	4200 5100 4250 5100
Wire Wire Line
	3650 6000 4550 6000
Wire Wire Line
	4550 5700 4550 6000
Connection ~ 3650 6000
Wire Wire Line
	3650 6000 3650 6050
$Comp
L power:GND #PWR05
U 1 1 5EEDACD1
P 2100 1350
F 0 "#PWR05" H 2100 1100 50  0001 C CNN
F 1 "GND" H 2105 1177 50  0000 C CNN
F 2 "" H 2100 1350 50  0001 C CNN
F 3 "" H 2100 1350 50  0001 C CNN
	1    2100 1350
	1    0    0    -1  
$EndComp
Wire Wire Line
	2100 1350 2100 1250
$Comp
L power:+5V #PWR04
U 1 1 5EF53DE2
P 2100 800
F 0 "#PWR04" H 2100 650 50  0001 C CNN
F 1 "+5V" H 2050 1000 50  0000 L CNN
F 2 "" H 2100 800 50  0001 C CNN
F 3 "" H 2100 800 50  0001 C CNN
	1    2100 800 
	1    0    0    -1  
$EndComp
Wire Wire Line
	2100 800  2100 950 
$Comp
L Device:D_Schottky D4
U 1 1 5EEFBFED
P 1800 950
F 0 "D4" H 1800 734 50  0000 C CNN
F 1 "D_Schottky" H 1800 825 50  0000 C CNN
F 2 "Diode_SMD:D_SMA" H 1800 950 50  0001 C CNN
F 3 "~" H 1800 950 50  0001 C CNN
	1    1800 950 
	-1   0    0    1   
$EndComp
Wire Wire Line
	1400 950  1650 950 
Wire Wire Line
	1950 950  2100 950 
Wire Wire Line
	1400 1250 2100 1250
Wire Wire Line
	3550 5000 3900 5000
$Comp
L Connector_Generic:Conn_01x04 J1
U 1 1 5EF3217F
P 1200 1150
F 0 "J1" H 1200 1400 50  0000 C CNN
F 1 "Conn_01x02" H 1118 916 50  0001 C CNN
F 2 "Connector_JST:JST_PH_B4B-PH-K_1x04_P2.00mm_Vertical" H 1200 1150 50  0001 C CNN
F 3 "~" H 1200 1150 50  0001 C CNN
	1    1200 1150
	-1   0    0    1   
$EndComp
Wire Wire Line
	1400 1150 2300 1150
Text Label 5850 3300 3    50   ~ 0
EXT_SIG
$Comp
L Jumper:SolderJumper_3_Open JP6
U 1 1 5F03285D
P 6150 3100
F 0 "JP6" H 6150 3213 50  0000 C CNN
F 1 "Jumper" H 6150 3214 50  0001 C CNN
F 2 "Jumper:SolderJumper-3_P1.3mm_Open_RoundedPad1.0x1.5mm" H 6150 3100 50  0001 C CNN
F 3 "~" H 6150 3100 50  0001 C CNN
	1    6150 3100
	-1   0    0    1   
$EndComp
Wire Wire Line
	5950 3100 5850 3100
Wire Wire Line
	5850 3100 5850 3300
Wire Wire Line
	6350 3100 6450 3100
Wire Wire Line
	6450 3100 6450 3300
Wire Wire Line
	6150 2250 6150 2950
Wire Wire Line
	1400 1050 2300 1050
Wire Wire Line
	5250 2250 6150 2250
Text Label 6450 3300 3    50   ~ 0
STATUS_LED
Text Label 2300 1050 0    50   ~ 0
MODE_SWITCH
Text Label 2300 1150 0    50   ~ 0
EXT_SIG
$EndSCHEMATC
