G04 #@! TF.GenerationSoftware,KiCad,Pcbnew,(6.0.10)*
G04 #@! TF.CreationDate,2023-05-19T09:31:38+02:00*
G04 #@! TF.ProjectId,raspi-cam-light,72617370-692d-4636-916d-2d6c69676874,rev?*
G04 #@! TF.SameCoordinates,Original*
G04 #@! TF.FileFunction,Profile,NP*
%FSLAX46Y46*%
G04 Gerber Fmt 4.6, Leading zero omitted, Abs format (unit mm)*
G04 Created by KiCad (PCBNEW (6.0.10)) date 2023-05-19 09:31:38*
%MOMM*%
%LPD*%
G01*
G04 APERTURE LIST*
G04 #@! TA.AperFunction,Profile*
%ADD10C,0.050000*%
G04 #@! TD*
G04 APERTURE END LIST*
D10*
X129362200Y-108966000D02*
X145700000Y-108966000D01*
X153744554Y-106680000D02*
X153750000Y-90500000D01*
X124396500Y-108966000D02*
X123516446Y-108969554D01*
X150500000Y-108966000D02*
X151458554Y-108966000D01*
X124637800Y-108966000D02*
X124637800Y-112000000D01*
X145700000Y-111800000D02*
G75*
G03*
X150500000Y-111800000I2400000J97813D01*
G01*
X150500000Y-111800000D02*
X150500000Y-108966000D01*
X121270389Y-91105985D02*
X121230446Y-106683554D01*
X129336800Y-108966000D02*
X129362200Y-111900000D01*
X124637804Y-112000000D02*
G75*
G03*
X129362200Y-111900000I2362146J52460D01*
G01*
X124396500Y-108966000D02*
X124612400Y-108966000D01*
X151458554Y-108965954D02*
G75*
G03*
X153744554Y-106680000I46J2285954D01*
G01*
X132200000Y-79850008D02*
G75*
G03*
X121270389Y-91105985I-105890J-10831522D01*
G01*
X129362200Y-108966000D02*
X129336800Y-108966000D01*
X153750000Y-90500000D02*
G75*
G03*
X142600448Y-79831417I-10922000J-254000D01*
G01*
X124612400Y-108966000D02*
X124637800Y-108966000D01*
X142600448Y-79831417D02*
X132200000Y-79850000D01*
X145700000Y-108966000D02*
X145700000Y-111800000D01*
X121230446Y-106683554D02*
G75*
G03*
X123516446Y-108969554I2285954J-46D01*
G01*
M02*
